<?xml version="1.0" encoding="utf-8"?>
<COLLADA xmlns="http://www.collada.org/2005/11/COLLADASchema" version="1.4.1" xmlns:xsi="http://www.w3.org/2001/XMLSchema-instance">
  <asset>
    <contributor>
      <author>Blender User</author>
      <authoring_tool>Blender 2.79.0 commit date:2017-09-11, commit time:10:43, hash:5bd8ac9abfa</authoring_tool>
    </contributor>
    <created>2017-09-19T18:20:10</created>
    <modified>2017-09-19T18:20:10</modified>
    <unit name="meter" meter="1"/>
    <up_axis>Z_UP</up_axis>
  </asset>
  <library_images/>
  <library_effects>
    <effect id="Material_002-effect">
      <profile_COMMON>
        <technique sid="common">
          <phong>
            <emission>
              <color sid="emission">0 0 0 1</color>
            </emission>
            <ambient>
              <color sid="ambient">0 0 0 1</color>
            </ambient>
            <diffuse>
              <color sid="diffuse">0.64 0.64 0.64 1</color>
            </diffuse>
            <specular>
              <color sid="specular">0.5 0.5 0.5 1</color>
            </specular>
            <shininess>
              <float sid="shininess">50</float>
            </shininess>
            <index_of_refraction>
              <float sid="index_of_refraction">1</float>
            </index_of_refraction>
          </phong>
        </technique>
      </profile_COMMON>
    </effect>
    <effect id="Material-effect">
      <profile_COMMON>
        <technique sid="common">
          <phong>
            <emission>
              <color sid="emission">0 0 0 1</color>
            </emission>
            <ambient>
              <color sid="ambient">0 0 0 1</color>
            </ambient>
            <diffuse>
              <color sid="diffuse">0.8000001 0 0 1</color>
            </diffuse>
            <specular>
              <color sid="specular">0.5 0.5 0.5 1</color>
            </specular>
            <shininess>
              <float sid="shininess">50</float>
            </shininess>
            <index_of_refraction>
              <float sid="index_of_refraction">1</float>
            </index_of_refraction>
          </phong>
        </technique>
      </profile_COMMON>
    </effect>
    <effect id="Material_001-effect">
      <profile_COMMON>
        <technique sid="common">
          <phong>
            <emission>
              <color sid="emission">0 0 0 1</color>
            </emission>
            <ambient>
              <color sid="ambient">0 0 0 1</color>
            </ambient>
            <diffuse>
              <color sid="diffuse">0.64 0.64 0.64 1</color>
            </diffuse>
            <specular>
              <color sid="specular">0.5 0.5 0.5 1</color>
            </specular>
            <shininess>
              <float sid="shininess">50</float>
            </shininess>
            <index_of_refraction>
              <float sid="index_of_refraction">1</float>
            </index_of_refraction>
          </phong>
        </technique>
      </profile_COMMON>
    </effect>
  </library_effects>
  <library_materials>
    <material id="Material_002-material" name="Material_002">
      <instance_effect url="#Material_002-effect"/>
    </material>
    <material id="Material-material" name="Material">
      <instance_effect url="#Material-effect"/>
    </material>
    <material id="Material_001-material" name="Material_001">
      <instance_effect url="#Material_001-effect"/>
    </material>
  </library_materials>
  <library_geometries>
    <geometry id="Cube_003-mesh" name="Cube.003">
      <mesh>
        <source id="Cube_003-mesh-positions">
          <float_array id="Cube_003-mesh-positions-array" count="96">-0.003436863 -1.253437 -0.603437 -0.003436863 -1.253437 0.603437 -0.003436863 -0.04656302 -0.603437 -0.003436863 -0.04656302 0.603437 1.203437 -1.253437 -0.603437 1.203437 -1.253437 0.603437 1.203437 -0.04656302 -0.603437 1.203437 -0.04656302 0.603437 0.0965631 0.04656308 -0.603437 0.0965631 0.04656308 0.603437 0.0965631 1.253437 -0.603437 0.0965631 1.253437 0.603437 1.303437 0.04656308 -0.603437 1.303437 0.04656308 0.603437 1.303437 1.253437 -0.603437 1.303437 1.253437 0.603437 -1.203437 0.04656308 -0.603437 -1.203437 0.04656308 0.603437 -1.203437 1.253437 -0.603437 -1.203437 1.253437 0.603437 0.003436923 0.04656308 -0.603437 0.003436923 0.04656308 0.603437 0.003436923 1.253437 -0.603437 0.003436923 1.253437 0.603437 -1.303437 -1.253437 -0.603437 -1.303437 -1.253437 0.603437 -1.303437 -0.04656308 -0.603437 -1.303437 -0.04656308 0.603437 -0.09656304 -1.253437 -0.603437 -0.09656304 -1.253437 0.603437 -0.09656304 -0.04656308 -0.603437 -0.09656304 -0.04656308 0.603437</float_array>
          <technique_common>
            <accessor source="#Cube_003-mesh-positions-array" count="32" stride="3">
              <param name="X" type="float"/>
              <param name="Y" type="float"/>
              <param name="Z" type="float"/>
            </accessor>
          </technique_common>
        </source>
        <source id="Cube_003-mesh-normals">
          <float_array id="Cube_003-mesh-normals-array" count="18">-1 0 0 0 1 0 1 0 0 0 -1 0 0 0 -1 0 0 1</float_array>
          <technique_common>
            <accessor source="#Cube_003-mesh-normals-array" count="6" stride="3">
              <param name="X" type="float"/>
              <param name="Y" type="float"/>
              <param name="Z" type="float"/>
            </accessor>
          </technique_common>
        </source>
        <source id="Cube_003-mesh-map-0">
          <float_array id="Cube_003-mesh-map-0-array" count="288">-1.02706 1.012267 -0.01226729 2.027059 -1.02706 2.027059 -2.046723 -0.007396221 -1.03193 1.007396 -2.046723 1.007396 1.007396 -1.031931 -0.007396221 -2.046723 1.007396 -2.046723 -1.03193 2.027059 -2.046723 1.012267 -1.031931 1.012267 -1.03193 -1.03193 -2.046723 -2.046723 -1.03193 -2.046723 -1.031931 3.046722 -2.046723 2.03193 -1.031931 2.03193 -1.02706 1.012267 -0.01226729 2.027059 -1.02706 2.027059 -2.046723 -0.007396221 -1.03193 1.007396 -2.046723 1.007396 1.007396 -1.031931 -0.007396221 -2.046723 1.007396 -2.046723 -1.03193 2.027059 -2.046723 1.012267 -1.031931 1.012267 -1.03193 -1.03193 -2.046723 -2.046723 -1.03193 -2.046723 -1.031931 3.046722 -2.046723 2.03193 -1.031931 2.03193 -1.02706 1.012267 -0.01226729 2.027059 -1.02706 2.027059 -2.046723 -0.007396221 -1.03193 1.007396 -2.046723 1.007396 1.007396 -1.031931 -0.007396221 -2.046723 1.007396 -2.046723 -1.03193 2.027059 -2.046723 1.012267 -1.031931 1.012267 -1.03193 -1.03193 -2.046723 -2.046723 -1.03193 -2.046723 -1.031931 3.046722 -2.046723 2.03193 -1.031931 2.03193 -1.02706 1.012267 -0.01226729 2.027059 -1.02706 2.027059 -2.046723 -0.007396221 -1.03193 1.007396 -2.046723 1.007396 1.007396 -1.031931 -0.007396221 -2.046723 1.007396 -2.046723 -1.03193 2.027059 -2.046723 1.012267 -1.031931 1.012267 -1.03193 -1.03193 -2.046723 -2.046723 -1.03193 -2.046723 -1.031931 3.046722 -2.046723 2.03193 -1.031931 2.03193 -1.02706 1.012267 -0.01226729 1.012267 -0.01226729 2.027059 -2.046723 -0.007396221 -1.03193 -0.007396042 -1.03193 1.007396 1.007396 -1.031931 -0.007395923 -1.031931 -0.007396221 -2.046723 -1.03193 2.027059 -2.046723 2.027059 -2.046723 1.012267 -1.03193 -1.03193 -2.046723 -1.031931 -2.046723 -2.046723 -1.031931 3.046722 -2.046723 3.046722 -2.046723 2.03193 -1.02706 1.012267 -0.01226729 1.012267 -0.01226729 2.027059 -2.046723 -0.007396221 -1.03193 -0.007396042 -1.03193 1.007396 1.007396 -1.031931 -0.007395923 -1.031931 -0.007396221 -2.046723 -1.03193 2.027059 -2.046723 2.027059 -2.046723 1.012267 -1.03193 -1.03193 -2.046723 -1.031931 -2.046723 -2.046723 -1.031931 3.046722 -2.046723 3.046722 -2.046723 2.03193 -1.02706 1.012267 -0.01226729 1.012267 -0.01226729 2.027059 -2.046723 -0.007396221 -1.03193 -0.007396042 -1.03193 1.007396 1.007396 -1.031931 -0.007395923 -1.031931 -0.007396221 -2.046723 -1.03193 2.027059 -2.046723 2.027059 -2.046723 1.012267 -1.03193 -1.03193 -2.046723 -1.031931 -2.046723 -2.046723 -1.031931 3.046722 -2.046723 3.046722 -2.046723 2.03193 -1.02706 1.012267 -0.01226729 1.012267 -0.01226729 2.027059 -2.046723 -0.007396221 -1.03193 -0.007396042 -1.03193 1.007396 1.007396 -1.031931 -0.007395923 -1.031931 -0.007396221 -2.046723 -1.03193 2.027059 -2.046723 2.027059 -2.046723 1.012267 -1.03193 -1.03193 -2.046723 -1.031931 -2.046723 -2.046723 -1.031931 3.046722 -2.046723 3.046722 -2.046723 2.03193</float_array>
          <technique_common>
            <accessor source="#Cube_003-mesh-map-0-array" count="144" stride="2">
              <param name="S" type="float"/>
              <param name="T" type="float"/>
            </accessor>
          </technique_common>
        </source>
        <source id="Cube_003-mesh-colors-Col" name="Col">
          <float_array id="Cube_003-mesh-colors-Col-array" count="432">0.6039216 0.5803922 1 0.6196079 0.5960785 1 0.6196079 0.5960785 1 0.6196079 0.5960785 1 0.6196079 0.5960785 1 0.6196079 0.5960785 1 0.4039216 0.3411765 1 0.6196079 0.5960785 1 0.2313725 0.2470588 0.9960784 0.6196079 0.5960785 1 0.2784314 0.9960784 0.0117647 0.6196079 0.5960785 1 0.2156863 0.2313725 0.9960784 0.2784314 0.9960784 0.0117647 0.5764706 0.5607843 1 0.6196079 0.5960785 1 0.6196079 0.5960785 1 0.6196079 0.5960785 1 0.6039216 0.5803922 1 0.6196079 0.5960785 1 0.6196079 0.5960785 1 0.6196079 0.5960785 1 0.6196079 0.5960785 1 0.6196079 0.5960785 1 0.4039216 0.3411765 1 0.6196079 0.5960785 1 0.2313725 0.2470588 0.9960784 0.6196079 0.5960785 1 0.2784314 0.9960784 0.0117647 0.6196079 0.5960785 1 0.2156863 0.2313725 0.9960784 0.2784314 0.9960784 0.0117647 0.5764706 0.5607843 1 0.6196079 0.5960785 1 0.6196079 0.5960785 1 0.6196079 0.5960785 1 0.6039216 0.5803922 1 0.6196079 0.5960785 1 0.6196079 0.5960785 1 0.6196079 0.5960785 1 0.6196079 0.5960785 1 0.6196079 0.5960785 1 0.4039216 0.3411765 1 0.6196079 0.5960785 1 0.2313725 0.2470588 0.9960784 0.6196079 0.5960785 1 0.2784314 0.9960784 0.0117647 0.6196079 0.5960785 1 0.2156863 0.2313725 0.9960784 0.2784314 0.9960784 0.0117647 0.5764706 0.5607843 1 0.6196079 0.5960785 1 0.6196079 0.5960785 1 0.6196079 0.5960785 1 0.6039216 0.5803922 1 0.6196079 0.5960785 1 0.6196079 0.5960785 1 0.6196079 0.5960785 1 0.6196079 0.5960785 1 0.6196079 0.5960785 1 0.4039216 0.3411765 1 0.6196079 0.5960785 1 0.2313725 0.2470588 0.9960784 0.6196079 0.5960785 1 0.2784314 0.9960784 0.0117647 0.6196079 0.5960785 1 0.2156863 0.2313725 0.9960784 0.2784314 0.9960784 0.0117647 0.5764706 0.5607843 1 0.6196079 0.5960785 1 0.6196079 0.5960785 1 0.6196079 0.5960785 1 0.6039216 0.5803922 1 0.6196079 0.5960785 1 0.6196079 0.5960785 1 0.6196079 0.5960785 1 0.6196079 0.5960785 1 0.6196079 0.5960785 1 0.4039216 0.3411765 1 0.5137255 0.5019608 1 0.6196079 0.5960785 1 0.6196079 0.5960785 1 0.6039216 0.5803922 1 0.2784314 0.9960784 0.0117647 0.2156863 0.2313725 0.9960784 0.6196079 0.5960785 1 0.2784314 0.9960784 0.0117647 0.6196079 0.5960785 1 0.6039216 0.5803922 1 0.6196079 0.5960785 1 0.6039216 0.5803922 1 0.6196079 0.5960785 1 0.6196079 0.5960785 1 0.6196079 0.5960785 1 0.6196079 0.5960785 1 0.6196079 0.5960785 1 0.4039216 0.3411765 1 0.5137255 0.5019608 1 0.6196079 0.5960785 1 0.6196079 0.5960785 1 0.6039216 0.5803922 1 0.2784314 0.9960784 0.0117647 0.2156863 0.2313725 0.9960784 0.6196079 0.5960785 1 0.2784314 0.9960784 0.0117647 0.6196079 0.5960785 1 0.6039216 0.5803922 1 0.6196079 0.5960785 1 0.6039216 0.5803922 1 0.6196079 0.5960785 1 0.6196079 0.5960785 1 0.6196079 0.5960785 1 0.6196079 0.5960785 1 0.6196079 0.5960785 1 0.4039216 0.3411765 1 0.5137255 0.5019608 1 0.6196079 0.5960785 1 0.6196079 0.5960785 1 0.6039216 0.5803922 1 0.2784314 0.9960784 0.0117647 0.2156863 0.2313725 0.9960784 0.6196079 0.5960785 1 0.2784314 0.9960784 0.0117647 0.6196079 0.5960785 1 0.6039216 0.5803922 1 0.6196079 0.5960785 1 0.6039216 0.5803922 1 0.6196079 0.5960785 1 0.6196079 0.5960785 1 0.6196079 0.5960785 1 0.6196079 0.5960785 1 0.6196079 0.5960785 1 0.4039216 0.3411765 1 0.5137255 0.5019608 1 0.6196079 0.5960785 1 0.6196079 0.5960785 1 0.6039216 0.5803922 1 0.2784314 0.9960784 0.0117647 0.2156863 0.2313725 0.9960784 0.6196079 0.5960785 1 0.2784314 0.9960784 0.0117647 0.6196079 0.5960785 1 0.6039216 0.5803922 1 0.6196079 0.5960785 1</float_array>
          <technique_common>
            <accessor source="#Cube_003-mesh-colors-Col-array" count="144" stride="3">
              <param name="R" type="float"/>
              <param name="G" type="float"/>
              <param name="B" type="float"/>
            </accessor>
          </technique_common>
        </source>
        <vertices id="Cube_003-mesh-vertices">
          <input semantic="POSITION" source="#Cube_003-mesh-positions"/>
        </vertices>
        <triangles material="Material_002-material" count="48">
          <input semantic="VERTEX" source="#Cube_003-mesh-vertices" offset="0"/>
          <input semantic="NORMAL" source="#Cube_003-mesh-normals" offset="1"/>
          <input semantic="TEXCOORD" source="#Cube_003-mesh-map-0" offset="2" set="0"/>
          <input semantic="COLOR" source="#Cube_003-mesh-colors-Col" offset="3" set="0"/>
          <p>1 0 0 0 2 0 1 1 0 0 2 2 3 1 3 3 6 1 4 4 2 1 5 5 7 2 6 6 4 2 7 7 6 2 8 8 5 3 9 9 0 3 10 10 4 3 11 11 6 4 12 12 0 4 13 13 2 4 14 14 3 5 15 15 5 5 16 16 7 5 17 17 9 0 18 18 10 0 19 19 8 0 20 20 11 1 21 21 14 1 22 22 10 1 23 23 15 2 24 24 12 2 25 25 14 2 26 26 13 3 27 27 8 3 28 28 12 3 29 29 14 4 30 30 8 4 31 31 10 4 32 32 11 5 33 33 13 5 34 34 15 5 35 35 17 0 36 36 18 0 37 37 16 0 38 38 19 1 39 39 22 1 40 40 18 1 41 41 23 2 42 42 20 2 43 43 22 2 44 44 21 3 45 45 16 3 46 46 20 3 47 47 22 4 48 48 16 4 49 49 18 4 50 50 19 5 51 51 21 5 52 52 23 5 53 53 25 0 54 54 26 0 55 55 24 0 56 56 27 1 57 57 30 1 58 58 26 1 59 59 31 2 60 60 28 2 61 61 30 2 62 62 29 3 63 63 24 3 64 64 28 3 65 65 30 4 66 66 24 4 67 67 26 4 68 68 27 5 69 69 29 5 70 70 31 5 71 71 1 0 72 72 3 0 73 73 2 0 74 74 3 1 75 75 7 1 76 76 6 1 77 77 7 2 78 78 5 2 79 79 4 2 80 80 5 3 81 81 1 3 82 82 0 3 83 83 6 4 84 84 4 4 85 85 0 4 86 86 3 5 87 87 1 5 88 88 5 5 89 89 9 0 90 90 11 0 91 91 10 0 92 92 11 1 93 93 15 1 94 94 14 1 95 95 15 2 96 96 13 2 97 97 12 2 98 98 13 3 99 99 9 3 100 100 8 3 101 101 14 4 102 102 12 4 103 103 8 4 104 104 11 5 105 105 9 5 106 106 13 5 107 107 17 0 108 108 19 0 109 109 18 0 110 110 19 1 111 111 23 1 112 112 22 1 113 113 23 2 114 114 21 2 115 115 20 2 116 116 21 3 117 117 17 3 118 118 16 3 119 119 22 4 120 120 20 4 121 121 16 4 122 122 19 5 123 123 17 5 124 124 21 5 125 125 25 0 126 126 27 0 127 127 26 0 128 128 27 1 129 129 31 1 130 130 30 1 131 131 31 2 132 132 29 2 133 133 28 2 134 134 29 3 135 135 25 3 136 136 24 3 137 137 30 4 138 138 28 4 139 139 24 4 140 140 27 5 141 141 25 5 142 142 29 5 143 143</p>
        </triangles>
      </mesh>
    </geometry>
    <geometry id="Cube_001-mesh" name="Cube.001">
      <mesh>
        <source id="Cube_001-mesh-positions">
          <float_array id="Cube_001-mesh-positions-array" count="96">0.1 -1.15 -0.5 0.1 -1.15 0.5 0.1 -0.1499999 -0.5 0.1 -0.1499999 0.5 1.1 -1.15 -0.5 1.1 -1.15 0.5 1.1 -0.1499999 -0.5 1.1 -0.1499999 0.5 0.2 0.15 -0.5 0.2 0.15 0.5 0.2 1.15 -0.5 0.2 1.15 0.5 1.2 0.15 -0.5 1.2 0.15 0.5 1.2 1.15 -0.5 1.2 1.15 0.5 -1.1 0.15 -0.5 -1.1 0.15 0.5 -1.1 1.15 -0.5 -1.1 1.15 0.5 -0.09999996 0.15 -0.5 -0.09999996 0.15 0.5 -0.09999996 1.15 -0.5 -0.09999996 1.15 0.5 -1.2 -1.15 -0.5 -1.2 -1.15 0.5 -1.2 -0.15 -0.5 -1.2 -0.15 0.5 -0.1999999 -1.15 -0.5 -0.1999999 -1.15 0.5 -0.1999999 -0.15 -0.5 -0.1999999 -0.15 0.5</float_array>
          <technique_common>
            <accessor source="#Cube_001-mesh-positions-array" count="32" stride="3">
              <param name="X" type="float"/>
              <param name="Y" type="float"/>
              <param name="Z" type="float"/>
            </accessor>
          </technique_common>
        </source>
        <source id="Cube_001-mesh-normals">
          <float_array id="Cube_001-mesh-normals-array" count="18">-1 0 0 0 1 0 1 0 0 0 -1 0 0 0 -1 0 0 1</float_array>
          <technique_common>
            <accessor source="#Cube_001-mesh-normals-array" count="6" stride="3">
              <param name="X" type="float"/>
              <param name="Y" type="float"/>
              <param name="Z" type="float"/>
            </accessor>
          </technique_common>
        </source>
        <source id="Cube_001-mesh-map-0">
          <float_array id="Cube_001-mesh-map-0-array" count="288">-1.02706 1.012267 -0.01226729 2.027059 -1.02706 2.027059 -2.046723 -0.007396221 -1.03193 1.007396 -2.046723 1.007396 1.007396 -1.031931 -0.007396221 -2.046723 1.007396 -2.046723 -1.03193 2.027059 -2.046723 1.012267 -1.031931 1.012267 -1.03193 -1.03193 -2.046723 -2.046723 -1.03193 -2.046723 -1.031931 3.046722 -2.046723 2.03193 -1.031931 2.03193 -1.02706 1.012267 -0.01226729 2.027059 -1.02706 2.027059 -2.046723 -0.007396221 -1.03193 1.007396 -2.046723 1.007396 1.007396 -1.031931 -0.007396221 -2.046723 1.007396 -2.046723 -1.03193 2.027059 -2.046723 1.012267 -1.031931 1.012267 -1.03193 -1.03193 -2.046723 -2.046723 -1.03193 -2.046723 -1.031931 3.046722 -2.046723 2.03193 -1.031931 2.03193 -1.02706 1.012267 -0.01226729 2.027059 -1.02706 2.027059 -2.046723 -0.007396221 -1.03193 1.007396 -2.046723 1.007396 1.007396 -1.031931 -0.007396221 -2.046723 1.007396 -2.046723 -1.03193 2.027059 -2.046723 1.012267 -1.031931 1.012267 -1.03193 -1.03193 -2.046723 -2.046723 -1.03193 -2.046723 -1.031931 3.046722 -2.046723 2.03193 -1.031931 2.03193 -1.02706 1.012267 -0.01226729 2.027059 -1.02706 2.027059 -2.046723 -0.007396221 -1.03193 1.007396 -2.046723 1.007396 1.007396 -1.031931 -0.007396221 -2.046723 1.007396 -2.046723 -1.03193 2.027059 -2.046723 1.012267 -1.031931 1.012267 -1.03193 -1.03193 -2.046723 -2.046723 -1.03193 -2.046723 -1.031931 3.046722 -2.046723 2.03193 -1.031931 2.03193 -1.02706 1.012267 -0.01226729 1.012267 -0.01226729 2.027059 -2.046723 -0.007396221 -1.03193 -0.007396042 -1.03193 1.007396 1.007396 -1.031931 -0.007395923 -1.031931 -0.007396221 -2.046723 -1.03193 2.027059 -2.046723 2.027059 -2.046723 1.012267 -1.03193 -1.03193 -2.046723 -1.031931 -2.046723 -2.046723 -1.031931 3.046722 -2.046723 3.046722 -2.046723 2.03193 -1.02706 1.012267 -0.01226729 1.012267 -0.01226729 2.027059 -2.046723 -0.007396221 -1.03193 -0.007396042 -1.03193 1.007396 1.007396 -1.031931 -0.007395923 -1.031931 -0.007396221 -2.046723 -1.03193 2.027059 -2.046723 2.027059 -2.046723 1.012267 -1.03193 -1.03193 -2.046723 -1.031931 -2.046723 -2.046723 -1.031931 3.046722 -2.046723 3.046722 -2.046723 2.03193 -1.02706 1.012267 -0.01226729 1.012267 -0.01226729 2.027059 -2.046723 -0.007396221 -1.03193 -0.007396042 -1.03193 1.007396 1.007396 -1.031931 -0.007395923 -1.031931 -0.007396221 -2.046723 -1.03193 2.027059 -2.046723 2.027059 -2.046723 1.012267 -1.03193 -1.03193 -2.046723 -1.031931 -2.046723 -2.046723 -1.031931 3.046722 -2.046723 3.046722 -2.046723 2.03193 -1.02706 1.012267 -0.01226729 1.012267 -0.01226729 2.027059 -2.046723 -0.007396221 -1.03193 -0.007396042 -1.03193 1.007396 1.007396 -1.031931 -0.007395923 -1.031931 -0.007396221 -2.046723 -1.03193 2.027059 -2.046723 2.027059 -2.046723 1.012267 -1.03193 -1.03193 -2.046723 -1.031931 -2.046723 -2.046723 -1.031931 3.046722 -2.046723 3.046722 -2.046723 2.03193</float_array>
          <technique_common>
            <accessor source="#Cube_001-mesh-map-0-array" count="144" stride="2">
              <param name="S" type="float"/>
              <param name="T" type="float"/>
            </accessor>
          </technique_common>
        </source>
        <source id="Cube_001-mesh-colors-Col" name="Col">
          <float_array id="Cube_001-mesh-colors-Col-array" count="432">0.6039216 0.5803922 1 0.6196079 0.5960785 1 0.6196079 0.5960785 1 0.6196079 0.5960785 1 0.6196079 0.5960785 1 0.6196079 0.5960785 1 0.4039216 0.3411765 1 0.6196079 0.5960785 1 0.2313725 0.2470588 0.9960784 0.6196079 0.5960785 1 0.2784314 0.9960784 0.0117647 0.6196079 0.5960785 1 0.2156863 0.2313725 0.9960784 0.2784314 0.9960784 0.0117647 0.5764706 0.5607843 1 0.6196079 0.5960785 1 0.6196079 0.5960785 1 0.6196079 0.5960785 1 0.6039216 0.5803922 1 0.6196079 0.5960785 1 0.6196079 0.5960785 1 0.6196079 0.5960785 1 0.6196079 0.5960785 1 0.6196079 0.5960785 1 0.4039216 0.3411765 1 0.6196079 0.5960785 1 0.2313725 0.2470588 0.9960784 0.6196079 0.5960785 1 0.2784314 0.9960784 0.0117647 0.6196079 0.5960785 1 0.2156863 0.2313725 0.9960784 0.2784314 0.9960784 0.0117647 0.5764706 0.5607843 1 0.6196079 0.5960785 1 0.6196079 0.5960785 1 0.6196079 0.5960785 1 0.6039216 0.5803922 1 0.6196079 0.5960785 1 0.6196079 0.5960785 1 0.6196079 0.5960785 1 0.6196079 0.5960785 1 0.6196079 0.5960785 1 0.4039216 0.3411765 1 0.6196079 0.5960785 1 0.2313725 0.2470588 0.9960784 0.6196079 0.5960785 1 0.2784314 0.9960784 0.0117647 0.6196079 0.5960785 1 0.2156863 0.2313725 0.9960784 0.2784314 0.9960784 0.0117647 0.5764706 0.5607843 1 0.6196079 0.5960785 1 0.6196079 0.5960785 1 0.6196079 0.5960785 1 0.6039216 0.5803922 1 0.6196079 0.5960785 1 0.6196079 0.5960785 1 0.6196079 0.5960785 1 0.6196079 0.5960785 1 0.6196079 0.5960785 1 0.4039216 0.3411765 1 0.6196079 0.5960785 1 0.2313725 0.2470588 0.9960784 0.6196079 0.5960785 1 0.2784314 0.9960784 0.0117647 0.6196079 0.5960785 1 0.2156863 0.2313725 0.9960784 0.2784314 0.9960784 0.0117647 0.5764706 0.5607843 1 0.6196079 0.5960785 1 0.6196079 0.5960785 1 0.6196079 0.5960785 1 0.6039216 0.5803922 1 0.6196079 0.5960785 1 0.6196079 0.5960785 1 0.6196079 0.5960785 1 0.6196079 0.5960785 1 0.6196079 0.5960785 1 0.4039216 0.3411765 1 0.5137255 0.5019608 1 0.6196079 0.5960785 1 0.6196079 0.5960785 1 0.6039216 0.5803922 1 0.2784314 0.9960784 0.0117647 0.2156863 0.2313725 0.9960784 0.6196079 0.5960785 1 0.2784314 0.9960784 0.0117647 0.6196079 0.5960785 1 0.6039216 0.5803922 1 0.6196079 0.5960785 1 0.6039216 0.5803922 1 0.6196079 0.5960785 1 0.6196079 0.5960785 1 0.6196079 0.5960785 1 0.6196079 0.5960785 1 0.6196079 0.5960785 1 0.4039216 0.3411765 1 0.5137255 0.5019608 1 0.6196079 0.5960785 1 0.6196079 0.5960785 1 0.6039216 0.5803922 1 0.2784314 0.9960784 0.0117647 0.2156863 0.2313725 0.9960784 0.6196079 0.5960785 1 0.2784314 0.9960784 0.0117647 0.6196079 0.5960785 1 0.6039216 0.5803922 1 0.6196079 0.5960785 1 0.6039216 0.5803922 1 0.6196079 0.5960785 1 0.6196079 0.5960785 1 0.6196079 0.5960785 1 0.6196079 0.5960785 1 0.6196079 0.5960785 1 0.4039216 0.3411765 1 0.5137255 0.5019608 1 0.6196079 0.5960785 1 0.6196079 0.5960785 1 0.6039216 0.5803922 1 0.2784314 0.9960784 0.0117647 0.2156863 0.2313725 0.9960784 0.6196079 0.5960785 1 0.2784314 0.9960784 0.0117647 0.6196079 0.5960785 1 0.6039216 0.5803922 1 0.6196079 0.5960785 1 0.6039216 0.5803922 1 0.6196079 0.5960785 1 0.6196079 0.5960785 1 0.6196079 0.5960785 1 0.6196079 0.5960785 1 0.6196079 0.5960785 1 0.4039216 0.3411765 1 0.5137255 0.5019608 1 0.6196079 0.5960785 1 0.6196079 0.5960785 1 0.6039216 0.5803922 1 0.2784314 0.9960784 0.0117647 0.2156863 0.2313725 0.9960784 0.6196079 0.5960785 1 0.2784314 0.9960784 0.0117647 0.6196079 0.5960785 1 0.6039216 0.5803922 1 0.6196079 0.5960785 1</float_array>
          <technique_common>
            <accessor source="#Cube_001-mesh-colors-Col-array" count="144" stride="3">
              <param name="R" type="float"/>
              <param name="G" type="float"/>
              <param name="B" type="float"/>
            </accessor>
          </technique_common>
        </source>
        <vertices id="Cube_001-mesh-vertices">
          <input semantic="POSITION" source="#Cube_001-mesh-positions"/>
        </vertices>
        <triangles material="Material-material" count="48">
          <input semantic="VERTEX" source="#Cube_001-mesh-vertices" offset="0"/>
          <input semantic="NORMAL" source="#Cube_001-mesh-normals" offset="1"/>
          <input semantic="TEXCOORD" source="#Cube_001-mesh-map-0" offset="2" set="0"/>
          <input semantic="COLOR" source="#Cube_001-mesh-colors-Col" offset="3" set="0"/>
          <p>1 0 0 0 2 0 1 1 0 0 2 2 3 1 3 3 6 1 4 4 2 1 5 5 7 2 6 6 4 2 7 7 6 2 8 8 5 3 9 9 0 3 10 10 4 3 11 11 6 4 12 12 0 4 13 13 2 4 14 14 3 5 15 15 5 5 16 16 7 5 17 17 9 0 18 18 10 0 19 19 8 0 20 20 11 1 21 21 14 1 22 22 10 1 23 23 15 2 24 24 12 2 25 25 14 2 26 26 13 3 27 27 8 3 28 28 12 3 29 29 14 4 30 30 8 4 31 31 10 4 32 32 11 5 33 33 13 5 34 34 15 5 35 35 17 0 36 36 18 0 37 37 16 0 38 38 19 1 39 39 22 1 40 40 18 1 41 41 23 2 42 42 20 2 43 43 22 2 44 44 21 3 45 45 16 3 46 46 20 3 47 47 22 4 48 48 16 4 49 49 18 4 50 50 19 5 51 51 21 5 52 52 23 5 53 53 25 0 54 54 26 0 55 55 24 0 56 56 27 1 57 57 30 1 58 58 26 1 59 59 31 2 60 60 28 2 61 61 30 2 62 62 29 3 63 63 24 3 64 64 28 3 65 65 30 4 66 66 24 4 67 67 26 4 68 68 27 5 69 69 29 5 70 70 31 5 71 71 1 0 72 72 3 0 73 73 2 0 74 74 3 1 75 75 7 1 76 76 6 1 77 77 7 2 78 78 5 2 79 79 4 2 80 80 5 3 81 81 1 3 82 82 0 3 83 83 6 4 84 84 4 4 85 85 0 4 86 86 3 5 87 87 1 5 88 88 5 5 89 89 9 0 90 90 11 0 91 91 10 0 92 92 11 1 93 93 15 1 94 94 14 1 95 95 15 2 96 96 13 2 97 97 12 2 98 98 13 3 99 99 9 3 100 100 8 3 101 101 14 4 102 102 12 4 103 103 8 4 104 104 11 5 105 105 9 5 106 106 13 5 107 107 17 0 108 108 19 0 109 109 18 0 110 110 19 1 111 111 23 1 112 112 22 1 113 113 23 2 114 114 21 2 115 115 20 2 116 116 21 3 117 117 17 3 118 118 16 3 119 119 22 4 120 120 20 4 121 121 16 4 122 122 19 5 123 123 17 5 124 124 21 5 125 125 25 0 126 126 27 0 127 127 26 0 128 128 27 1 129 129 31 1 130 130 30 1 131 131 31 2 132 132 29 2 133 133 28 2 134 134 29 3 135 135 25 3 136 136 24 3 137 137 30 4 138 138 28 4 139 139 24 4 140 140 27 5 141 141 25 5 142 142 29 5 143 143</p>
        </triangles>
      </mesh>
    </geometry>
    <geometry id="Icosphere-mesh" name="Icosphere">
      <mesh>
        <source id="Icosphere-mesh-positions">
          <float_array id="Icosphere-mesh-positions-array" count="486">0 0 -2.46 1.780074 -1.293284 -1.10016 -0.6799144 -2.092597 -1.100161 -2.200288 0 -1.10015 -0.6799144 2.092597 -1.100161 1.780074 1.293284 -1.10016 0.6799144 -2.092597 1.100161 -1.780074 -1.293284 1.10016 -1.780074 1.293284 1.10016 0.6799144 2.092597 1.100161 2.200288 0 1.10015 0 0 2.46 -0.5727409 -1.762745 -1.617497 -0.3996407 -1.229989 -2.09261 -0.1909123 -0.5875777 -2.381156 0.4998251 -0.3631399 -2.381156 1.046294 -0.760168 -2.092609 1.499485 -1.089427 -1.617496 1.308575 -1.677013 -1.235662 0.6466574 -1.990169 -1.293315 -0.07291257 -2.125893 -1.235663 1.999314 0.7262848 -1.235659 2.092594 0 -1.29331 1.999314 -0.7262848 -1.235659 0.4998251 0.3631399 -2.381156 1.046294 0.760168 -2.092609 1.499485 1.089427 -1.617496 -1.853467 0 -1.617486 -1.293295 0 -2.092603 -0.6178216 0 -2.381154 -1.19057 -1.762749 -1.235662 -1.692946 -1.229992 -1.293311 -2.044384 -0.5875794 -1.235655 -0.5727409 1.762745 -1.617497 -0.3996407 1.229989 -2.09261 -0.1909123 0.5875777 -2.381156 -2.044384 0.5875794 -1.235655 -1.692946 1.229992 -1.293311 -1.19057 1.762749 -1.235662 -0.07291251 2.125893 -1.235663 0.6466574 1.990169 -1.293315 1.308575 1.677013 -1.235662 2.353299 -0.3631411 0.6178276 2.339603 -0.7601712 0 2.117316 -1.089429 -0.6178311 2.117316 1.089429 -0.6178311 2.339603 0.7601711 0 2.353299 0.3631411 0.6178276 0.381829 -2.350338 0.6178327 0 -2.46 0 -0.381829 -2.350338 -0.6178327 1.69041 -1.67702 -0.6178337 1.445953 -1.990181 0 1.072577 -2.125902 0.617834 -2.117316 -1.089429 0.6178311 -2.339603 -0.7601711 0 -2.353299 -0.3631411 -0.6178276 -1.072577 -2.125902 -0.617834 -1.445953 -1.990181 0 -1.69041 -1.67702 0.6178337 -1.69041 1.67702 0.6178337 -1.445953 1.990181 0 -1.072577 2.125902 -0.617834 -2.353299 0.3631411 -0.6178276 -2.339603 0.7601712 0 -2.117316 1.089429 0.6178311 1.072577 2.125902 0.617834 1.445953 1.990181 0 1.69041 1.67702 -0.6178337 -0.381829 2.350338 -0.6178327 0 2.46 0 0.381829 2.350338 0.6178327 2.044384 -0.5875794 1.235655 1.692946 -1.229992 1.293311 1.19057 -1.762749 1.235662 0.07291251 -2.125893 1.235663 -0.6466574 -1.990169 1.293315 -1.308575 -1.677013 1.235662 -1.999314 -0.7262848 1.235659 -2.092594 0 1.29331 -1.999314 0.7262848 1.235659 -1.308575 1.677013 1.235662 -0.6466574 1.990169 1.293315 0.07291257 2.125893 1.235663 1.19057 1.762749 1.235662 1.692946 1.229992 1.293311 2.044384 0.5875794 1.235655 0.1909123 -0.5875777 2.381156 0.3996407 -1.229989 2.09261 0.5727409 -1.762745 1.617497 1.853467 0 1.617486 1.293295 0 2.092603 0.6178216 0 2.381154 -0.4998251 -0.3631399 2.381156 -1.046294 -0.760168 2.092609 -1.499485 -1.089427 1.617496 -0.4998251 0.3631399 2.381156 -1.046294 0.760168 2.092609 -1.499485 1.089427 1.617496 0.1909123 0.5875777 2.381156 0.3996407 1.229989 2.09261 0.5727409 1.762745 1.617497 0.8900288 0.646643 2.200296 1.569956 0.6466457 1.780081 1.100135 1.293292 1.780085 -0.3399653 1.046286 2.200298 -0.1298624 1.692935 1.780086 -0.8900372 1.445935 1.780086 -1.100136 0 2.200295 -1.650209 0.3996443 1.780083 -1.650209 -0.3996443 1.780083 -0.3399652 -1.046286 2.200298 -0.8900372 -1.445935 1.780086 -0.1298624 -1.692935 1.780086 0.8900288 -0.646643 2.200296 1.100135 -1.293292 1.780085 1.569956 -0.6466457 1.780081 2.120038 1.046292 0.6799345 1.990187 1.445944 0 1.650218 1.692945 0.6799375 -0.3399684 2.339596 0.6799368 -0.7601805 2.339599 -1.18073e-6 -1.100149 2.092596 0.6799372 -2.330145 0.3996458 0.6799337 -2.46 -9.18347e-7 1.57431e-6 -2.330144 -0.3996464 0.6799356 -1.100151 -2.092595 0.6799362 -0.7601823 -2.339599 -1.90229e-6 -0.3399702 -2.339596 0.6799361 1.650218 -1.692947 0.6799345 1.990186 -1.445946 -4.65733e-6 2.120038 -1.046295 0.6799303 0.7601824 2.339599 0 1.10015 2.092595 -0.6799383 0.3399699 2.339595 -0.6799379 -1.990185 1.445947 0 -1.650215 1.692949 -0.6799373 -2.120036 1.046297 -0.679935 -1.990185 -1.445947 0 -2.120036 -1.046297 -0.679935 -1.650215 -1.692949 -0.6799373 0.7601823 -2.339599 0 0.3399699 -2.339595 -0.6799379 1.100151 -2.092595 -0.6799383 2.46 0 0 2.330144 -0.3996455 -0.679934 2.330144 0.3996455 -0.679934 0.8900367 1.445937 -1.780085 0.3399642 1.04629 -2.200296 0.1298612 1.692938 -1.780083 -1.100138 1.293289 -1.780084 -0.890031 0.646642 -2.200295 -1.569959 0.6466427 -1.780079 -1.569959 -0.6466448 -1.780079 -0.8900312 -0.6466463 -2.200294 -1.100138 -1.293292 -1.780082 1.65021 0.3996437 -1.780082 1.650211 -0.3996461 -1.780081 1.100139 -1.83669e-6 -2.200294 0.1298642 -1.692936 -1.780085 0.3399688 -1.046289 -2.200296 0.8900403 -1.445937 -1.780083</float_array>
          <technique_common>
            <accessor source="#Icosphere-mesh-positions-array" count="162" stride="3">
              <param name="X" type="float"/>
              <param name="Y" type="float"/>
              <param name="Z" type="float"/>
            </accessor>
          </technique_common>
        </source>
        <source id="Icosphere-mesh-normals">
          <float_array id="Icosphere-mesh-normals-array" count="486">0 0 -1 0.2109472 -0.1532663 -0.9654071 -0.08057051 -0.247968 -0.965412 0.7236065 -0.5257211 -0.4472261 0.6042211 -0.4389896 -0.664985 0.8151943 -0.2857193 -0.5038084 -0.2607538 0 -0.9654054 -0.08057051 0.247968 -0.965412 0.2109472 0.1532663 -0.9654071 0.8649966 -0.4389835 -0.2430523 -0.2763783 -0.8506509 -0.4472227 -0.01983773 -0.8635824 -0.5038174 -0.1502166 -0.9583103 -0.2430567 -0.8944334 0 -0.4472014 -0.8274607 -0.2479665 -0.5038071 -0.957829 -0.1532648 -0.2430508 -0.2763783 0.8506509 -0.4472227 -0.4915494 0.7103142 -0.5038183 -0.4417319 0.863596 -0.2430533 0.7236065 0.5257211 -0.4472261 0.5236525 0.6869925 -0.5038149 0.6848183 0.6869852 -0.2430542 0.6848183 -0.6869852 -0.2430542 -0.4417319 -0.863596 -0.2430533 -0.957829 0.1532648 -0.2430508 -0.1502166 0.9583103 -0.2430567 0.8649966 0.4389835 -0.2430523 0.2763783 -0.8506509 0.4472227 0.4915494 -0.7103142 0.5038183 0.2307866 -0.7103053 0.6649842 -0.7236065 -0.5257211 0.4472261 -0.5236525 -0.6869925 0.5038149 -0.6042211 -0.4389896 0.664985 -0.7236065 0.5257211 0.4472261 -0.8151943 0.2857193 0.5038084 -0.6042211 0.4389896 0.664985 0.2763783 0.8506509 0.4472227 0.01983773 0.8635824 0.5038174 0.2307866 0.7103053 0.6649842 0.8944334 0 0.4472014 0.8274607 0.2479665 0.5038071 0.7468619 0 0.6649793 0.2607538 0 0.9654054 0.08057051 0.247968 0.965412 0 0 1 0.5257209 0 0.8506572 0.368214 0.2675007 0.8904279 0.6317517 0.2675026 0.7275521 0.1624526 0.4999929 0.8506563 0.4496427 0.5181589 0.7275527 0.6881878 0.5000036 0.5257317 0.4915494 0.7103142 0.5038183 -0.2109472 0.1532663 0.9654071 -0.1406323 0.4328534 0.8904272 -0.05920684 0.6835034 0.7275423 -0.4253148 0.3090063 0.8506601 -0.3538459 0.5877493 0.7275602 -0.2628661 0.8090161 0.5257323 -0.5236525 0.6869925 0.5038149 -0.2109472 -0.1532663 0.9654071 -0.455131 0 0.8904246 -0.6683425 0.1548855 0.72755 -0.4253148 -0.3090063 0.8506601 -0.6683425 -0.1548855 0.72755 -0.8506572 0 0.5257209 -0.8151943 -0.2857193 0.5038084 0.08057051 -0.247968 0.965412 -0.1406323 -0.4328534 0.8904272 -0.3538459 -0.5877493 0.7275602 0.1624526 -0.4999929 0.8506563 -0.05920684 -0.6835034 0.7275423 -0.2628661 -0.8090161 0.5257323 0.01983773 -0.8635824 0.5038174 0.368214 -0.2675007 0.8904279 0.4496427 -0.5181589 0.7275527 0.6317517 -0.2675026 0.7275521 0.6881878 -0.5000036 0.5257317 0.8274607 -0.2479665 0.5038071 0.957829 0.1532648 0.2430508 0.9510608 0.309004 0 0.8593211 0.4328498 0.2724118 0.8089881 0.5877585 0.008850395 0.6772139 0.6835008 0.2724115 0.587767 0.8090303 0 0.4417319 0.863596 0.2430533 0.1502166 0.9583103 0.2430567 0 1 0 -0.1461231 0.9510212 0.2724092 -0.3090008 0.9510207 0.008850336 -0.4407662 0.8552854 0.2724192 -0.587767 0.8090303 0 -0.6848183 0.6869852 0.2430542 -0.8649966 0.4389835 0.2430523 -0.9510608 0.309004 0 -0.9496325 0.1548844 0.2724136 -0.9999609 0 0.008850514 -0.9496325 -0.1548844 0.2724136 -0.9510608 -0.309004 0 -0.8649966 -0.4389835 0.2430523 -0.6848183 -0.6869852 0.2430542 -0.587767 -0.8090303 0 -0.4407662 -0.8552854 0.2724192 -0.3090008 -0.9510207 0.008850336 -0.1461274 -0.9510183 0.2724171 0 -1 0 0.1502166 -0.9583103 0.2430567 0.4417319 -0.863596 0.2430533 0.587767 -0.8090303 0 0.6772139 -0.6835008 0.2724115 0.8089881 -0.5877585 0.008850395 0.8593211 -0.4328498 0.2724118 0.9510608 -0.309004 0 0.957829 -0.1532648 0.2430508 0.3090008 0.9510207 -0.008850336 0.4407662 0.8552854 -0.2724192 0.1461274 0.9510183 -0.2724171 0.2628661 0.8090161 -0.5257323 -0.01983773 0.8635824 -0.5038174 -0.8089881 0.5877585 -0.008850395 -0.6772139 0.6835008 -0.2724115 -0.8593211 0.4328498 -0.2724118 -0.6881878 0.5000036 -0.5257317 -0.8274607 0.2479665 -0.5038071 -0.8089881 -0.5877585 -0.008850395 -0.8593211 -0.4328498 -0.2724118 -0.6772139 -0.6835008 -0.2724115 -0.6881878 -0.5000036 -0.5257317 -0.4915494 -0.7103142 -0.5038183 0.3090008 -0.9510207 -0.008850336 0.1461274 -0.9510183 -0.2724171 0.4407662 -0.8552854 -0.2724192 0.2628661 -0.8090161 -0.5257323 0.5236525 -0.6869925 -0.5038149 0.9999609 0 -0.008850514 0.9496325 -0.1548844 -0.2724136 0.9496325 0.1548844 -0.2724136 0.8506572 0 -0.5257209 0.8151943 0.2857193 -0.5038084 0.6042211 0.4389896 -0.664985 0.4253148 0.3090063 -0.8506601 0.3538396 0.5877693 -0.7275472 0.1406323 0.4328534 -0.8904272 0.05920684 0.6835034 -0.7275423 -0.1624526 0.4999929 -0.8506563 -0.2307866 0.7103053 -0.6649842 -0.4496427 0.5181589 -0.7275527 -0.368214 0.2675007 -0.8904279 -0.6317517 0.2675026 -0.7275521 -0.5257209 0 -0.8506572 -0.7468619 0 -0.6649793 -0.6317517 -0.2675026 -0.7275521 -0.368214 -0.2675007 -0.8904279 -0.4496427 -0.5181589 -0.7275527 -0.1624526 -0.4999929 -0.8506563 -0.2307866 -0.7103053 -0.6649842 0.6683425 0.1548855 -0.72755 0.6683425 -0.1548855 -0.72755 0.455131 0 -0.8904246 0.4253148 -0.3090063 -0.8506601 0.05920684 -0.6835034 -0.7275423 0.1406323 -0.4328534 -0.8904272 0.3538396 -0.5877693 -0.7275472</float_array>
          <technique_common>
            <accessor source="#Icosphere-mesh-normals-array" count="162" stride="3">
              <param name="X" type="float"/>
              <param name="Y" type="float"/>
              <param name="Z" type="float"/>
            </accessor>
          </technique_common>
        </source>
        <source id="Icosphere-mesh-map-0">
          <float_array id="Icosphere-mesh-map-0-array" count="1920">-0.4801718 -0.5828323 -0.6614039 -0.609264 -0.5269063 -0.7993579 0.2042059 0.8120899 0.1108548 0.6920807 0.3026216 0.6201919 -0.4801718 -0.5828323 -0.5269063 -0.7993579 -0.3354721 -0.6773119 -0.4801718 -0.5828323 -0.3354721 -0.6773119 -0.3516611 -0.4117879 -0.4801718 -0.5828323 -0.3516611 -0.4117879 -0.5530974 -0.3697345 0.2042059 0.8120899 0.3026216 0.6201919 0.3723191 0.8314164 -0.8330883 1.949698 -0.9805124 1.989419 -0.9569264 1.777595 0.411375 0.175002 0.3794926 0.341961 0.2365465 0.158195 0.9409264 -0.5459424 0.8442197 -0.362995 0.7860485 -0.634575 -0.8156556 0.3039315 -0.6342628 0.3352009 -0.7704947 0.4725645 0.2042059 0.8120899 0.3723191 0.8314164 0.2236239 1.033852 -0.8330883 1.949698 -0.9569264 1.777595 -0.7542908 1.777596 0.411375 0.175002 0.2365465 0.158195 0.3399674 -0.02726656 0.9409264 -0.5459424 0.7860485 -0.634575 0.9232153 -0.7766582 -0.8156556 0.3039315 -0.7704947 0.4725645 -0.9619305 0.3505143 0.4113726 1.779289 0.5468309 1.64616 0.5712566 1.874356 -0.4741482 1.079137 -0.6545637 1.044256 -0.5150764 0.8605609 0.204201 -0.7921836 0.0620287 -0.6565378 0.11085 -0.9121931 1.777559 -0.8690536 1.915597 -0.7170316 1.714318 -0.6860607 0.9409214 1.058341 1.066157 1.011395 1.017334 1.267049 1.358558 -0.1063035 1.556788 -0.1696438 1.497048 0.05052042 1.219849 -0.3031676 1.415792 -0.3751817 1.358558 -0.1063035 1.119625 -0.4960365 1.284317 -0.5896371 1.219849 -0.3031676 1.358558 -0.1063035 1.415792 -0.3751817 1.556788 -0.1696438 1.415792 -0.3751817 1.634808 -0.4357597 1.556788 -0.1696438 1.219849 -0.3031676 1.284317 -0.5896371 1.415792 -0.3751817 1.284317 -0.5896371 1.502474 -0.6593458 1.415792 -0.3751817 1.415792 -0.3751817 1.502474 -0.6593458 1.634808 -0.4357597 1.502474 -0.6593458 1.714318 -0.6860607 1.634808 -0.4357597 1.119625 -0.4960365 1.198389 -0.7542448 1.284317 -0.5896371 1.198389 -0.7542448 1.384727 -0.8436797 1.284317 -0.5896371 1.284317 -0.5896371 1.384727 -0.8436797 1.502474 -0.6593458 1.384727 -0.8436797 1.594851 -0.8809298 1.502474 -0.6593458 1.502474 -0.6593458 1.594851 -0.8809298 1.714318 -0.6860607 1.594851 -0.8809298 1.777559 -0.8690536 1.714318 -0.6860607 1.556788 -0.1696438 1.6793 0.05759382 1.497048 0.05052042 1.634808 -0.4357597 1.768776 -0.1948093 1.556788 -0.1696438 1.714318 -0.6860607 1.855459 -0.4789727 1.634808 -0.4357597 1.556788 -0.1696438 1.768776 -0.1948093 1.6793 0.05759382 1.768776 -0.1948093 1.891265 0.03992128 1.6793 0.05759382 1.634808 -0.4357597 1.855459 -0.4789727 1.768776 -0.1948093 1.855459 -0.4789727 1.990286 -0.2288918 1.768776 -0.1948093 1.768776 -0.1948093 1.990286 -0.2288918 1.891265 0.03992128 1.990286 -0.2288918 2.081856 -0.00434339 1.891265 0.03992128 1.714318 -0.6860607 1.915597 -0.7170316 1.855459 -0.4789727 1.915597 -0.7170316 2.056147 -0.50059 1.855459 -0.4789727 1.855459 -0.4789727 2.056147 -0.50059 1.990286 -0.2288918 2.056147 -0.50059 2.160622 -0.2625522 1.990286 -0.2288918 1.990286 -0.2288918 2.160622 -0.2625522 2.081856 -0.00434339 0.3026161 -0.9840846 0.204201 -0.7921836 0.11085 -0.9121931 1.6793 0.05759382 1.556789 0.261375 1.497048 0.05052042 1.891265 0.03992128 1.768777 0.279536 1.6793 0.05759382 2.081856 -0.00434339 1.990287 0.2454549 1.891265 0.03992128 1.6793 0.05759382 1.768777 0.279536 1.556789 0.261375 1.768777 0.279536 1.634811 0.4665006 1.556789 0.261375 1.891265 0.03992128 1.990287 0.2454549 1.768777 0.279536 1.990287 0.2454549 1.855461 0.469721 1.768777 0.279536 1.768777 0.279536 1.855461 0.469721 1.634811 0.4665006 -0.3635913 0.7520359 -0.5150764 0.8605609 -0.5746629 0.6448851 2.081856 -0.00434339 2.160622 0.1684696 1.990287 0.2454549 0.0620287 -0.6565378 -0.06753027 -0.4749652 -0.04397594 -0.7608085 1.990287 0.2454549 2.056148 0.4016735 1.855461 0.469721 -0.1810001 0.9189273 -0.3270191 0.9914749 -0.3635913 0.7520359 -0.3635913 0.7520359 -0.3270191 0.9914749 -0.5150764 0.8605609 -0.3270191 0.9914749 -0.4741482 1.079137 -0.5150764 0.8605609 1.556789 0.261375 1.35856 0.1600838 1.497048 0.05052042 1.634811 0.4665006 1.415796 0.3923293 1.556789 0.261375 -0.5150764 0.8605609 -0.7240598 0.8101223 -0.5746629 0.6448851 1.556789 0.261375 1.415796 0.3923293 1.35856 0.1600838 1.415796 0.3923293 1.219853 0.2544662 1.35856 0.1600838 -0.5746629 0.6448851 -0.7240598 0.8101223 -0.7935543 0.6079638 -0.7240598 0.8101223 -0.9470633 0.810122 -0.7935543 0.6079638 -0.7935543 0.6079638 -0.9470633 0.810122 -0.9988394 0.6448845 0.5560038 2.047942 0.5712566 1.874356 0.7548978 1.932008 -0.5150764 0.8605609 -0.6545637 1.044256 -0.7240598 0.8101223 -0.6545637 1.044256 -0.8666537 1.029415 -0.7240598 0.8101223 -0.7240598 0.8101223 -0.8666537 1.029415 -0.9470633 0.810122 -0.8666537 1.029415 -1.059834 1.044256 -0.9470633 0.810122 -0.9470633 0.810122 -1.059834 1.044256 -1.12298 0.8605603 0.3794893 1.946247 0.4113726 1.779289 0.5712566 1.874356 1.35856 0.1600838 1.358558 -0.1063035 1.497048 0.05052042 1.219853 0.2544662 1.197637 -0.01230859 1.35856 0.1600838 0.5712566 1.874356 0.7401651 1.717692 0.7548978 1.932008 1.35856 0.1600838 1.197637 -0.01230859 1.358558 -0.1063035 1.197637 -0.01230859 1.219849 -0.3031676 1.358558 -0.1063035 0.7548978 1.932008 0.7401651 1.717692 0.9306848 1.746041 0.7401651 1.717692 0.9038042 1.494907 0.9306848 1.746041 1.197637 -0.01230859 1.066161 -0.2267625 1.219849 -0.3031676 0.9038042 1.494907 1.017334 1.267049 1.066157 1.508247 0.5712566 1.874356 0.5468309 1.64616 0.7401651 1.717692 0.5468309 1.64616 0.7037681 1.454321 0.7401651 1.717692 0.7401651 1.717692 0.7037681 1.454321 0.9038042 1.494907 0.7037681 1.454321 0.8442168 1.241287 0.9038042 1.494907 0.9038042 1.494907 0.8442168 1.241287 1.017334 1.267049 0.8442168 1.241287 0.9409214 1.058341 1.017334 1.267049 0.9232122 0.8276274 1.066157 1.011395 0.9409214 1.058341 0.869131 0.5883983 1.044473 0.7583109 0.9232122 0.8276274 -0.9619305 0.3505143 -0.9212332 0.5199275 -1.108467 0.3524741 0.9232122 0.8276274 1.044473 0.7583109 1.066157 1.011395 1.293094 -0.9707174 1.384727 -0.8436797 1.198389 -0.7542448 0.869131 0.5883983 0.9677712 0.5258499 1.044473 0.7583109 1.433349 -1.137344 1.511252 -1.040429 1.293094 -0.9707174 1.293094 -0.9707174 1.511252 -1.040429 1.384727 -0.8436797 1.511252 -1.040429 1.594851 -0.8809298 1.384727 -0.8436797 -0.9619305 0.3505143 -0.7704947 0.4725645 -0.9212332 0.5199275 -0.7704947 0.4725645 -0.7077319 0.6079638 -0.9212332 0.5199275 1.433349 -1.137344 1.651509 -1.160622 1.511252 -1.040429 1.651509 -1.160622 1.722297 -1.032337 1.511252 -1.040429 1.511252 -1.040429 1.722297 -1.032337 1.594851 -0.8809298 1.722297 -1.032337 1.777559 -0.8690536 1.594851 -0.8809298 1.920528 -0.9310433 1.915597 -0.7170316 1.777559 -0.8690536 2.06647 -0.9485834 2.082398 -0.7485809 1.920528 -0.9310433 0.9232153 -0.7766582 0.7362039 -0.8918496 0.8691318 -1.015888 1.920528 -0.9310433 2.082398 -0.7485809 1.915597 -0.7170316 2.082398 -0.7485809 2.056147 -0.50059 1.915597 -0.7170316 0.8691318 -1.015888 0.7362039 -0.8918496 0.6594982 -1.124308 0.7362039 -0.8918496 0.5085425 -0.9679421 0.6594982 -1.124308 0.6594982 -1.124308 0.5085425 -0.9679421 0.4360948 -1.160622 0.5085425 -0.9679421 0.3026161 -0.9840846 0.4360948 -1.160622 0.9232153 -0.7766582 0.7860485 -0.634575 0.7362039 -0.8918496 0.7860485 -0.634575 0.5819972 -0.7184624 0.7362039 -0.8918496 0.7362039 -0.8918496 0.5819972 -0.7184624 0.5085425 -0.9679421 0.5819972 -0.7184624 0.3723145 -0.7728605 0.5085425 -0.9679421 0.5085425 -0.9679421 0.3723145 -0.7728605 0.3026161 -0.9840846 0.3723145 -0.7728605 0.204201 -0.7921836 0.3026161 -0.9840846 0.2236213 -0.5704223 0.0620287 -0.6565378 0.204201 -0.7921836 0.2707349 -0.2946975 0.08013033 -0.3846833 0.2236213 -0.5704223 0.3399674 -0.02726656 0.1441501 -0.08580648 0.2707349 -0.2946975 0.2236213 -0.5704223 0.08013033 -0.3846833 0.0620287 -0.6565378 0.08013033 -0.3846833 -0.06753027 -0.4749652 0.0620287 -0.6565378 0.2707349 -0.2946975 0.1441501 -0.08580648 0.08013033 -0.3846833 0.1441501 -0.08580648 -0.03368717 -0.1805785 0.08013033 -0.3846833 0.08013033 -0.3846833 -0.03368717 -0.1805785 -0.06753027 -0.4749652 -0.1822284 1.187312 -0.3270191 0.9914749 -0.1810001 0.9189273 0.3399674 -0.02726656 0.2365465 0.158195 0.1441501 -0.08580648 0.2365465 0.158195 0.05424189 0.09353333 0.1441501 -0.08580648 -0.07036185 1.420429 -0.2296909 1.472832 -0.1822284 1.187312 -0.2296909 1.472832 -0.3502789 1.256081 -0.1822284 1.187312 -0.1822284 1.187312 -0.3502789 1.256081 -0.3270191 0.9914749 -0.3502789 1.256081 -0.4741482 1.079137 -0.3270191 0.9914749 -0.5527153 1.288702 -0.6545637 1.044256 -0.4741482 1.079137 -0.6534541 1.541119 -0.7654834 1.2813 -0.5527153 1.288702 -0.7542908 1.777596 -0.8764025 1.550319 -0.6534541 1.541119 -0.5527153 1.288702 -0.7654834 1.2813 -0.6545637 1.044256 -0.7654834 1.2813 -0.8666537 1.029415 -0.6545637 1.044256 -0.6534541 1.541119 -0.8764025 1.550319 -0.7654834 1.2813 -0.8764025 1.550319 -0.9884882 1.2813 -0.7654834 1.2813 -0.7654834 1.2813 -0.9884882 1.2813 -0.8666537 1.029415 -0.9884882 1.2813 -1.059834 1.044256 -0.8666537 1.029415 -0.7542908 1.777596 -0.9569264 1.777595 -0.8764025 1.550319 -0.9569264 1.777595 -1.077635 1.541118 -0.8764025 1.550319 -0.8764025 1.550319 -1.077635 1.541118 -0.9884882 1.2813 -1.077635 1.541118 -1.160622 1.288702 -0.9884882 1.2813 -0.9884882 1.2813 -1.160622 1.288702 -1.059834 1.044256 0.2365426 1.76248 0.4113726 1.779289 0.3794893 1.946247 0.3399656 1.577017 0.5468309 1.64616 0.4113726 1.779289 0.2707347 1.30958 0.4856262 1.390461 0.3399656 1.577017 0.2236239 1.033852 0.4216076 1.09158 0.2707347 1.30958 0.3399656 1.577017 0.4856262 1.390461 0.5468309 1.64616 0.4856262 1.390461 0.7037681 1.454321 0.5468309 1.64616 0.2707347 1.30958 0.4216076 1.09158 0.4856262 1.390461 0.4216076 1.09158 0.6492661 1.167676 0.4856262 1.390461 0.4856262 1.390461 0.6492661 1.167676 0.7037681 1.454321 0.6492661 1.167676 0.8442168 1.241287 0.7037681 1.454321 0.2236239 1.033852 0.3723191 0.8314164 0.4216076 1.09158 0.3723191 0.8314164 0.5819991 0.8858178 0.4216076 1.09158 0.4216076 1.09158 0.5819991 0.8858178 0.6492661 1.167676 0.5819991 0.8858178 0.7860465 0.9697076 0.6492661 1.167676 0.6492661 1.167676 0.7860465 0.9697076 0.8442168 1.241287 0.7860465 0.9697076 0.9409214 1.058341 0.8442168 1.241287 1.722297 -1.032337 1.920528 -0.9310433 1.777559 -0.8690536 1.651509 -1.160622 1.869667 -1.09558 1.722297 -1.032337 -0.7704947 0.4725645 -0.5606275 0.5030756 -0.7077319 0.6079638 1.722297 -1.032337 1.869667 -1.09558 1.920528 -0.9310433 1.869667 -1.09558 2.06647 -0.9485834 1.920528 -0.9310433 -0.7077319 0.6079638 -0.5606275 0.5030756 -0.4888659 0.6079638 -0.5606275 0.5030756 -0.33894 0.456794 -0.4888659 0.6079638 0.9677706 -1.078435 1.044475 -0.8459748 0.8691318 -1.015888 1.044475 -0.8459748 0.9232153 -0.7766582 0.8691318 -1.015888 -0.7704947 0.4725645 -0.6342628 0.3352009 -0.5606275 0.5030756 -0.6342628 0.3352009 -0.4225564 0.3204199 -0.5606275 0.5030756 -0.5606275 0.5030756 -0.4225564 0.3204199 -0.33894 0.456794 -0.4225564 0.3204199 -0.2313863 0.2510936 -0.33894 0.456794 1.044475 -0.8459748 1.066161 -0.59289 0.9232153 -0.7766582 1.066161 -0.59289 0.9409264 -0.5459424 0.9232153 -0.7766582 0.3723145 -0.7728605 0.2236213 -0.5704223 0.204201 -0.7921836 0.5819972 -0.7184624 0.4216074 -0.5126975 0.3723145 -0.7728605 0.7860485 -0.634575 0.6492687 -0.4366051 0.5819972 -0.7184624 0.3723145 -0.7728605 0.4216074 -0.5126975 0.2236213 -0.5704223 0.4216074 -0.5126975 0.2707349 -0.2946975 0.2236213 -0.5704223 0.5819972 -0.7184624 0.6492687 -0.4366051 0.4216074 -0.5126975 0.6492687 -0.4366051 0.4856281 -0.2138198 0.4216074 -0.5126975 0.4216074 -0.5126975 0.4856281 -0.2138198 0.2707349 -0.2946975 0.4856281 -0.2138198 0.3399674 -0.02726656 0.2707349 -0.2946975 0.7860485 -0.634575 0.8442197 -0.362995 0.6492687 -0.4366051 0.8442197 -0.362995 0.7037695 -0.1499611 0.6492687 -0.4366051 0.6492687 -0.4366051 0.7037695 -0.1499611 0.4856281 -0.2138198 0.7037695 -0.1499611 0.5468323 0.04187524 0.4856281 -0.2138198 0.4856281 -0.2138198 0.5468323 0.04187524 0.3399674 -0.02726656 0.5468323 0.04187524 0.411375 0.175002 0.3399674 -0.02726656 -0.3502789 1.256081 -0.5527153 1.288702 -0.4741482 1.079137 -0.2296909 1.472832 -0.4306119 1.514418 -0.3502789 1.256081 -0.1469824 1.67973 -0.318746 1.747536 -0.2296909 1.472832 -0.3502789 1.256081 -0.4306119 1.514418 -0.5527153 1.288702 -0.4306119 1.514418 -0.6534541 1.541119 -0.5527153 1.288702 -0.2296909 1.472832 -0.318746 1.747536 -0.4306119 1.514418 -0.318746 1.747536 -0.5415313 1.783437 -0.4306119 1.514418 -0.4306119 1.514418 -0.5415313 1.783437 -0.6534541 1.541119 -0.5415313 1.783437 -0.7542908 1.777596 -0.6534541 1.541119 -0.1469824 1.67973 -0.2477692 1.924174 -0.318746 1.747536 -0.2477692 1.924174 -0.44067 1.984533 -0.318746 1.747536 -0.318746 1.747536 -0.44067 1.984533 -0.5415313 1.783437 -0.44067 1.984533 -0.6526407 1.989419 -0.5415313 1.783437 -0.5415313 1.783437 -0.6526407 1.989419 -0.7542908 1.777596 -0.6526407 1.989419 -0.8330883 1.949698 -0.7542908 1.777596 0.2365426 1.76248 0.3399656 1.577017 0.4113726 1.779289 0.05423754 1.697815 0.1441476 1.518474 0.2365426 1.76248 -0.9569264 1.777595 -1.125365 1.783436 -1.077635 1.541118 0.2365426 1.76248 0.1441476 1.518474 0.3399656 1.577017 0.1441476 1.518474 0.2707347 1.30958 0.3399656 1.577017 0.05423754 1.697815 -0.03368943 1.423699 0.1441476 1.518474 -0.03368943 1.423699 0.08012992 1.219592 0.1441476 1.518474 0.1441476 1.518474 0.08012992 1.219592 0.2707347 1.30958 0.08012992 1.219592 0.2236239 1.033852 0.2707347 1.30958 -0.9569264 1.777595 -0.9805124 1.989419 -1.125365 1.783436 -0.9805124 1.989419 -1.127008 1.984532 -1.125365 1.783436 -0.03368943 1.423699 -0.06753027 1.129309 0.08012992 1.219592 -0.06753027 1.129309 0.06203132 0.9477351 0.08012992 1.219592 0.08012992 1.219592 0.06203132 0.9477351 0.2236239 1.033852 0.06203132 0.9477351 0.2042059 0.8120899 0.2236239 1.033852 0.7860465 0.9697076 0.9232122 0.8276274 0.9409214 1.058341 0.5819991 0.8858178 0.7362037 0.7124345 0.7860465 0.9697076 0.3723191 0.8314164 0.5085459 0.6363386 0.5819991 0.8858178 0.7860465 0.9697076 0.7362037 0.7124345 0.9232122 0.8276274 0.7362037 0.7124345 0.869131 0.5883983 0.9232122 0.8276274 0.5819991 0.8858178 0.5085459 0.6363386 0.7362037 0.7124345 0.5085459 0.6363386 0.6595 0.4799759 0.7362037 0.7124345 0.7362037 0.7124345 0.6595 0.4799759 0.869131 0.5883983 -1.112187 0.1514279 -0.9619305 0.3505143 -1.108467 0.3524741 0.3723191 0.8314164 0.3026216 0.6201919 0.5085459 0.6363386 0.3026216 0.6201919 0.4360997 0.4436575 0.5085459 0.6363386 0.5085459 0.6363386 0.4360997 0.4436575 0.6595 0.4799759 -1.07095 -0.09296429 -0.9440079 0.1377219 -1.112187 0.1514279 -1.112187 0.1514279 -0.9440079 0.1377219 -0.9619305 0.3505143 -0.9440079 0.1377219 -0.8156556 0.3039315 -0.9619305 0.3505143 -0.7414992 0.1282569 -0.6342628 0.3352009 -0.8156556 0.3039315 -0.6470363 -0.1127777 -0.5287182 0.124159 -0.7414992 0.1282569 -0.5530974 -0.3697345 -0.4250483 -0.1498655 -0.6470363 -0.1127777 -0.7414992 0.1282569 -0.5287182 0.124159 -0.6342628 0.3352009 -0.5287182 0.124159 -0.4225564 0.3204199 -0.6342628 0.3352009 -0.6470363 -0.1127777 -0.4250483 -0.1498655 -0.5287182 0.124159 -0.4250483 -0.1498655 -0.3070319 0.07787895 -0.5287182 0.124159 -0.5287182 0.124159 -0.3070319 0.07787895 -0.4225564 0.3204199 -0.3070319 0.07787895 -0.2313863 0.2510936 -0.4225564 0.3204199 -0.5530974 -0.3697345 -0.3516611 -0.4117879 -0.4250483 -0.1498655 -0.3516611 -0.4117879 -0.2253655 -0.2008088 -0.4250483 -0.1498655 -0.4250483 -0.1498655 -0.2253655 -0.2008088 -0.3070319 0.07787895 -0.2253655 -0.2008088 -0.1371862 0.002096056 -0.3070319 0.07787895 -0.3070319 0.07787895 -0.1371862 0.002096056 -0.2313863 0.2510936 1.017339 -0.3372342 0.9409264 -0.5459424 1.066161 -0.59289 1.017339 -0.3372342 0.8442197 -0.362995 0.9409264 -0.5459424 1.066161 -0.09603625 0.9038074 -0.1093761 1.017339 -0.3372342 -0.3516611 -0.4117879 -0.1855475 -0.4883631 -0.2253655 -0.2008088 1.017339 -0.3372342 0.9038074 -0.1093761 0.8442197 -0.362995 0.9038074 -0.1093761 0.7037695 -0.1499611 0.8442197 -0.362995 -0.2253655 -0.2008088 -0.1855475 -0.4883631 -0.06753021 -0.26062 0.9306876 0.1417567 0.7401669 0.1134069 0.9038074 -0.1093761 0.9038074 -0.1093761 0.7401669 0.1134069 0.7037695 -0.1499611 0.7401669 0.1134069 0.5468323 0.04187524 0.7037695 -0.1499611 -0.3516611 -0.4117879 -0.3354721 -0.6773119 -0.1855475 -0.4883631 -0.3354721 -0.6773119 -0.191478 -0.756635 -0.1855475 -0.4883631 0.9306876 0.1417567 0.7548999 0.3277218 0.7401669 0.1134069 0.7548999 0.3277218 0.5712584 0.2700695 0.7401669 0.1134069 0.7401669 0.1134069 0.5712584 0.2700695 0.5468323 0.04187524 0.5712584 0.2700695 0.411375 0.175002 0.5468323 0.04187524 0.5712584 0.2700695 0.3794926 0.341961 0.411375 0.175002 0.7548999 0.3277218 0.5560062 0.4436575 0.5712584 0.2700695 -0.3354721 -0.6773119 -0.3784095 -0.9148938 -0.191478 -0.756635 0.5712584 0.2700695 0.5560062 0.4436575 0.3794926 0.341961 -0.3607469 2.124721 -0.44067 1.984533 -0.2477692 1.924174 -0.191478 -0.756635 -0.3784095 -0.9148938 -0.2425769 -0.9793659 -0.3784095 -0.9148938 -0.4532548 -1.113683 -0.2425769 -0.9793659 -0.3607469 2.124721 -0.5835314 2.160622 -0.44067 1.984533 -0.5835314 2.160622 -0.6526407 1.989419 -0.44067 1.984533 -0.3354721 -0.6773119 -0.5269063 -0.7993579 -0.3784095 -0.9148938 -0.5269063 -0.7993579 -0.5922101 -1.012117 -0.3784095 -0.9148938 -0.3784095 -0.9148938 -0.5922101 -1.012117 -0.4532548 -1.113683 -0.5922101 -1.012117 -0.6629256 -1.160622 -0.4532548 -1.113683 -0.5835314 2.160622 -0.7924544 2.120331 -0.6526407 1.989419 -0.7924544 2.120331 -0.8330883 1.949698 -0.6526407 1.989419 -0.9440079 0.1377219 -0.7414992 0.1282569 -0.8156556 0.3039315 -1.07095 -0.09296429 -0.8695988 -0.09316956 -0.9440079 0.1377219 -1.160622 -0.3413403 -0.9887935 -0.3567777 -1.07095 -0.09296429 -0.9440079 0.1377219 -0.8695988 -0.09316956 -0.7414992 0.1282569 -0.8695988 -0.09316956 -0.6470363 -0.1127777 -0.7414992 0.1282569 -1.07095 -0.09296429 -0.9887935 -0.3567777 -0.8695988 -0.09316956 -0.9887935 -0.3567777 -0.7659291 -0.3671938 -0.8695988 -0.09316956 -0.8695988 -0.09316956 -0.7659291 -0.3671938 -0.6470363 -0.1127777 -0.7659291 -0.3671938 -0.5530974 -0.3697345 -0.6470363 -0.1127777 -1.160622 -0.3413403 -1.066421 -0.5903362 -0.9887935 -0.3567777 -1.066421 -0.5903362 -0.8737567 -0.6141896 -0.9887935 -0.3567777 -0.9887935 -0.3567777 -0.8737567 -0.6141896 -0.7659291 -0.3671938 -0.8737567 -0.6141896 -0.6614039 -0.609264 -0.7659291 -0.3671938 -0.7659291 -0.3671938 -0.6614039 -0.609264 -0.5530974 -0.3697345 -0.6614039 -0.609264 -0.4801718 -0.5828323 -0.5530974 -0.3697345 -0.7924544 2.120331 -0.9805124 1.989419 -0.8330883 1.949698 -0.5922101 -1.012117 -0.8119516 -1.038793 -0.6629256 -1.160622 -0.5269063 -0.7993579 -0.7371057 -0.8400043 -0.5922101 -1.012117 -0.7924544 2.120331 -0.9443597 2.160622 -0.9805124 1.989419 -0.8119516 -1.038793 -1.016125 -0.9923087 -0.8654348 -1.15116 -0.5922101 -1.012117 -0.7371057 -0.8400043 -0.8119516 -1.038793 -0.7371057 -0.8400043 -0.9599705 -0.8295896 -0.8119516 -1.038793 -0.8119516 -1.038793 -0.9599705 -0.8295896 -1.016125 -0.9923087 -0.04397332 0.8434653 0.06203132 0.9477351 -0.06753027 1.129309 -0.5269063 -0.7993579 -0.6614039 -0.609264 -0.7371057 -0.8400043 -0.6614039 -0.609264 -0.8737567 -0.6141896 -0.7371057 -0.8400043 -0.7371057 -0.8400043 -0.8737567 -0.6141896 -0.9599705 -0.8295896 -0.8737567 -0.6141896 -1.066421 -0.5903362 -0.9599705 -0.8295896 -0.9599705 -0.8295896 -1.066421 -0.5903362 -1.134432 -0.7709679 0.1108548 0.6920807 0.2042059 0.8120899 0.06203132 0.9477351</float_array>
          <technique_common>
            <accessor source="#Icosphere-mesh-map-0-array" count="960" stride="2">
              <param name="S" type="float"/>
              <param name="T" type="float"/>
            </accessor>
          </technique_common>
        </source>
        <vertices id="Icosphere-mesh-vertices">
          <input semantic="POSITION" source="#Icosphere-mesh-positions"/>
        </vertices>
        <triangles material="Material_001-material" count="320">
          <input semantic="VERTEX" source="#Icosphere-mesh-vertices" offset="0"/>
          <input semantic="NORMAL" source="#Icosphere-mesh-normals" offset="1"/>
          <input semantic="TEXCOORD" source="#Icosphere-mesh-map-0" offset="2" set="0"/>
          <p>0 0 0 15 1 1 14 2 2 1 3 3 17 4 4 23 5 5 0 0 6 14 2 7 29 6 8 0 0 9 29 6 10 35 7 11 0 0 12 35 7 13 24 8 14 1 3 15 23 5 16 44 9 17 2 10 18 20 11 19 50 12 20 3 13 21 32 14 22 56 15 23 4 16 24 38 17 25 62 18 26 5 19 27 41 20 28 68 21 29 1 3 30 44 9 31 51 22 32 2 10 33 50 12 34 57 23 35 3 13 36 56 15 37 63 24 38 4 16 39 62 18 40 69 25 41 5 19 42 68 21 43 45 26 44 6 27 45 74 28 46 89 29 47 7 30 48 77 31 49 95 32 50 8 33 51 80 34 52 98 35 53 9 36 54 83 37 55 101 38 56 10 39 57 86 40 58 90 41 59 92 42 60 99 43 61 11 44 62 91 45 63 102 46 64 92 42 65 90 41 66 103 47 67 91 45 68 92 42 69 102 46 70 99 43 71 102 46 72 100 48 73 99 43 74 91 45 75 103 47 76 102 46 77 103 47 78 104 49 79 102 46 80 102 46 81 104 49 82 100 48 83 104 49 84 101 38 85 100 48 86 90 41 87 86 40 88 103 47 89 86 40 90 85 50 91 103 47 92 103 47 93 85 50 94 104 49 95 85 50 96 84 51 97 104 49 98 104 49 99 84 51 100 101 38 101 84 51 102 9 36 103 101 38 104 99 43 105 96 52 106 11 44 107 100 48 108 105 53 109 99 43 110 101 38 111 106 54 112 100 48 113 99 43 114 105 53 115 96 52 116 105 53 117 97 55 118 96 52 119 100 48 120 106 54 121 105 53 122 106 54 123 107 56 124 105 53 125 105 53 126 107 56 127 97 55 128 107 56 129 98 35 130 97 55 131 101 38 132 83 37 133 106 54 134 83 37 135 82 57 136 106 54 137 106 54 138 82 57 139 107 56 140 82 57 141 81 58 142 107 56 143 107 56 144 81 58 145 98 35 146 81 58 147 8 33 148 98 35 149 96 52 150 93 59 151 11 44 152 97 55 153 108 60 154 96 52 155 98 35 156 109 61 157 97 55 158 96 52 159 108 60 160 93 59 161 108 60 162 94 62 163 93 59 164 97 55 165 109 61 166 108 60 167 109 61 168 110 63 169 108 60 170 108 60 171 110 63 172 94 62 173 110 63 174 95 32 175 94 62 176 98 35 177 80 34 178 109 61 179 80 34 180 79 64 181 109 61 182 109 61 183 79 64 184 110 63 185 79 64 186 78 65 187 110 63 188 110 63 189 78 65 190 95 32 191 78 65 192 7 30 193 95 32 194 93 59 195 87 66 196 11 44 197 94 62 198 111 67 199 93 59 200 95 32 201 112 68 202 94 62 203 93 59 204 111 67 205 87 66 206 111 67 207 88 69 208 87 66 209 94 62 210 112 68 211 111 67 212 112 68 213 113 70 214 111 67 215 111 67 216 113 70 217 88 69 218 113 70 219 89 29 220 88 69 221 95 32 222 77 31 223 112 68 224 77 31 225 76 71 226 112 68 227 112 68 228 76 71 229 113 70 230 76 71 231 75 72 232 113 70 233 113 70 234 75 72 235 89 29 236 75 72 237 6 27 238 89 29 239 87 66 240 92 42 241 11 44 242 88 69 243 114 73 244 87 66 245 89 29 246 115 74 247 88 69 248 87 66 249 114 73 250 92 42 251 114 73 252 91 45 253 92 42 254 88 69 255 115 74 256 114 73 257 115 74 258 116 75 259 114 73 260 114 73 261 116 75 262 91 45 263 116 75 264 90 41 265 91 45 266 89 29 267 74 28 268 115 74 269 74 28 270 73 76 271 115 74 272 115 74 273 73 76 274 116 75 275 73 76 276 72 77 277 116 75 278 116 75 279 72 77 280 90 41 281 72 77 282 10 39 283 90 41 284 47 78 285 86 40 286 10 39 287 46 79 288 117 80 289 47 78 290 45 26 291 118 81 292 46 79 293 47 78 294 117 80 295 86 40 296 117 80 297 85 50 298 86 40 299 46 79 300 118 81 301 117 80 302 118 81 303 119 82 304 117 80 305 117 80 306 119 82 307 85 50 308 119 82 309 84 51 310 85 50 311 45 26 312 68 21 313 118 81 314 68 21 315 67 83 316 118 81 317 118 81 318 67 83 319 119 82 320 67 83 321 66 84 322 119 82 323 119 82 324 66 84 325 84 51 326 66 84 327 9 36 328 84 51 329 71 85 330 83 37 331 9 36 332 70 86 333 120 87 334 71 85 335 69 25 336 121 88 337 70 86 338 71 85 339 120 87 340 83 37 341 120 87 342 82 57 343 83 37 344 70 86 345 121 88 346 120 87 347 121 88 348 122 89 349 120 87 350 120 87 351 122 89 352 82 57 353 122 89 354 81 58 355 82 57 356 69 25 357 62 18 358 121 88 359 62 18 360 61 90 361 121 88 362 121 88 363 61 90 364 122 89 365 61 90 366 60 91 367 122 89 368 122 89 369 60 91 370 81 58 371 60 91 372 8 33 373 81 58 374 65 92 375 80 34 376 8 33 377 64 93 378 123 94 379 65 92 380 63 24 381 124 95 382 64 93 383 65 92 384 123 94 385 80 34 386 123 94 387 79 64 388 80 34 389 64 93 390 124 95 391 123 94 392 124 95 393 125 96 394 123 94 395 123 94 396 125 96 397 79 64 398 125 96 399 78 65 400 79 64 401 63 24 402 56 15 403 124 95 404 56 15 405 55 97 406 124 95 407 124 95 408 55 97 409 125 96 410 55 97 411 54 98 412 125 96 413 125 96 414 54 98 415 78 65 416 54 98 417 7 30 418 78 65 419 59 99 420 77 31 421 7 30 422 58 100 423 126 101 424 59 99 425 57 23 426 127 102 427 58 100 428 59 99 429 126 101 430 77 31 431 126 101 432 76 71 433 77 31 434 58 100 435 127 102 436 126 101 437 127 102 438 128 103 439 126 101 440 126 101 441 128 103 442 76 71 443 128 103 444 75 72 445 76 71 446 57 23 447 50 12 448 127 102 449 50 12 450 49 104 451 127 102 452 127 102 453 49 104 454 128 103 455 49 104 456 48 105 457 128 103 458 128 103 459 48 105 460 75 72 461 48 105 462 6 27 463 75 72 464 53 106 465 74 28 466 6 27 467 52 107 468 129 108 469 53 106 470 51 22 471 130 109 472 52 107 473 53 106 474 129 108 475 74 28 476 129 108 477 73 76 478 74 28 479 52 107 480 130 109 481 129 108 482 130 109 483 131 110 484 129 108 485 129 108 486 131 110 487 73 76 488 131 110 489 72 77 490 73 76 491 51 22 492 44 9 493 130 109 494 44 9 495 43 111 496 130 109 497 130 109 498 43 111 499 131 110 500 43 111 501 42 112 502 131 110 503 131 110 504 42 112 505 72 77 506 42 112 507 10 39 508 72 77 509 66 84 510 71 85 511 9 36 512 67 83 513 132 113 514 66 84 515 68 21 516 133 114 517 67 83 518 66 84 519 132 113 520 71 85 521 132 113 522 70 86 523 71 85 524 67 83 525 133 114 526 132 113 527 133 114 528 134 115 529 132 113 530 132 113 531 134 115 532 70 86 533 134 115 534 69 25 535 70 86 536 68 21 537 41 20 538 133 114 539 41 20 540 40 116 541 133 114 542 133 114 543 40 116 544 134 115 545 40 116 546 39 117 547 134 115 548 134 115 549 39 117 550 69 25 551 39 117 552 4 16 553 69 25 554 60 91 555 65 92 556 8 33 557 61 90 558 135 118 559 60 91 560 62 18 561 136 119 562 61 90 563 60 91 564 135 118 565 65 92 566 135 118 567 64 93 568 65 92 569 61 90 570 136 119 571 135 118 572 136 119 573 137 120 574 135 118 575 135 118 576 137 120 577 64 93 578 137 120 579 63 24 580 64 93 581 62 18 582 38 17 583 136 119 584 38 17 585 37 121 586 136 119 587 136 119 588 37 121 589 137 120 590 37 121 591 36 122 592 137 120 593 137 120 594 36 122 595 63 24 596 36 122 597 3 13 598 63 24 599 54 98 600 59 99 601 7 30 602 55 97 603 138 123 604 54 98 605 56 15 606 139 124 607 55 97 608 54 98 609 138 123 610 59 99 611 138 123 612 58 100 613 59 99 614 55 97 615 139 124 616 138 123 617 139 124 618 140 125 619 138 123 620 138 123 621 140 125 622 58 100 623 140 125 624 57 23 625 58 100 626 56 15 627 32 14 628 139 124 629 32 14 630 31 126 631 139 124 632 139 124 633 31 126 634 140 125 635 31 126 636 30 127 637 140 125 638 140 125 639 30 127 640 57 23 641 30 127 642 2 10 643 57 23 644 48 105 645 53 106 646 6 27 647 49 104 648 141 128 649 48 105 650 50 12 651 142 129 652 49 104 653 48 105 654 141 128 655 53 106 656 141 128 657 52 107 658 53 106 659 49 104 660 142 129 661 141 128 662 142 129 663 143 130 664 141 128 665 141 128 666 143 130 667 52 107 668 143 130 669 51 22 670 52 107 671 50 12 672 20 11 673 142 129 674 20 11 675 19 131 676 142 129 677 142 129 678 19 131 679 143 130 680 19 131 681 18 132 682 143 130 683 143 130 684 18 132 685 51 22 686 18 132 687 1 3 688 51 22 689 42 112 690 47 78 691 10 39 692 43 111 693 144 133 694 42 112 695 44 9 696 145 134 697 43 111 698 42 112 699 144 133 700 47 78 701 144 133 702 46 79 703 47 78 704 43 111 705 145 134 706 144 133 707 145 134 708 146 135 709 144 133 710 144 133 711 146 135 712 46 79 713 146 135 714 45 26 715 46 79 716 44 9 717 23 5 718 145 134 719 23 5 720 22 136 721 145 134 722 145 134 723 22 136 724 146 135 725 22 136 726 21 137 727 146 135 728 146 135 729 21 137 730 45 26 731 21 137 732 5 19 733 45 26 734 26 138 735 41 20 736 5 19 737 25 139 738 147 140 739 26 138 740 24 8 741 148 141 742 25 139 743 26 138 744 147 140 745 41 20 746 147 140 747 40 116 748 41 20 749 25 139 750 148 141 751 147 140 752 148 141 753 149 142 754 147 140 755 147 140 756 149 142 757 40 116 758 149 142 759 39 117 760 40 116 761 24 8 762 35 7 763 148 141 764 35 7 765 34 143 766 148 141 767 148 141 768 34 143 769 149 142 770 34 143 771 33 144 772 149 142 773 149 142 774 33 144 775 39 117 776 33 144 777 4 16 778 39 117 779 33 144 780 38 17 781 4 16 782 34 143 783 150 145 784 33 144 785 35 7 786 151 146 787 34 143 788 33 144 789 150 145 790 38 17 791 150 145 792 37 121 793 38 17 794 34 143 795 151 146 796 150 145 797 151 146 798 152 147 799 150 145 800 150 145 801 152 147 802 37 121 803 152 147 804 36 122 805 37 121 806 35 7 807 29 6 808 151 146 809 29 6 810 28 148 811 151 146 812 151 146 813 28 148 814 152 147 815 28 148 816 27 149 817 152 147 818 152 147 819 27 149 820 36 122 821 27 149 822 3 13 823 36 122 824 27 149 825 32 14 826 3 13 827 28 148 828 153 150 829 27 149 830 29 6 831 154 151 832 28 148 833 27 149 834 153 150 835 32 14 836 153 150 837 31 126 838 32 14 839 28 148 840 154 151 841 153 150 842 154 151 843 155 152 844 153 150 845 153 150 846 155 152 847 31 126 848 155 152 849 30 127 850 31 126 851 29 6 852 14 2 853 154 151 854 14 2 855 13 153 856 154 151 857 154 151 858 13 153 859 155 152 860 13 153 861 12 154 862 155 152 863 155 152 864 12 154 865 30 127 866 12 154 867 2 10 868 30 127 869 21 137 870 26 138 871 5 19 872 22 136 873 156 155 874 21 137 875 23 5 876 157 156 877 22 136 878 21 137 879 156 155 880 26 138 881 156 155 882 25 139 883 26 138 884 22 136 885 157 156 886 156 155 887 157 156 888 158 157 889 156 155 890 156 155 891 158 157 892 25 139 893 158 157 894 24 8 895 25 139 896 23 5 897 17 4 898 157 156 899 17 4 900 16 158 901 157 156 902 157 156 903 16 158 904 158 157 905 16 158 906 15 1 907 158 157 908 158 157 909 15 1 910 24 8 911 15 1 912 0 0 913 24 8 914 12 154 915 20 11 916 2 10 917 13 153 918 159 159 919 12 154 920 14 2 921 160 160 922 13 153 923 12 154 924 159 159 925 20 11 926 159 159 927 19 131 928 20 11 929 13 153 930 160 160 931 159 159 932 160 160 933 161 161 934 159 159 935 159 159 936 161 161 937 19 131 938 161 161 939 18 132 940 19 131 941 14 2 942 15 1 943 160 160 944 15 1 945 16 158 946 160 160 947 160 160 948 16 158 949 161 161 950 16 158 951 17 4 952 161 161 953 161 161 954 17 4 955 18 132 956 17 4 957 1 3 958 18 132 959</p>
        </triangles>
      </mesh>
    </geometry>
    <geometry id="Cube_000-mesh" name="Cube.000">
      <mesh>
        <source id="Cube_000-mesh-positions">
          <float_array id="Cube_000-mesh-positions-array" count="96">0.1 -1.15 -0.5 0.1 -1.15 0.5 0.1 -0.1499999 -0.5 0.1 -0.1499999 0.5 1.1 -1.15 -0.5 1.1 -1.15 0.5 1.1 -0.1499999 -0.5 1.1 -0.1499999 0.5 0.2 0.15 -0.5 0.2 0.15 0.5 0.2 1.15 -0.5 0.2 1.15 0.5 1.2 0.15 -0.5 1.2 0.15 0.5 1.2 1.15 -0.5 1.2 1.15 0.5 -1.1 0.15 -0.5 -1.1 0.15 0.5 -1.1 1.15 -0.5 -1.1 1.15 0.5 -0.09999996 0.15 -0.5 -0.09999996 0.15 0.5 -0.09999996 1.15 -0.5 -0.09999996 1.15 0.5 -1.2 -1.15 -0.5 -1.2 -1.15 0.5 -1.2 -0.15 -0.5 -1.2 -0.15 0.5 -0.1999999 -1.15 -0.5 -0.1999999 -1.15 0.5 -0.1999999 -0.15 -0.5 -0.1999999 -0.15 0.5</float_array>
          <technique_common>
            <accessor source="#Cube_000-mesh-positions-array" count="32" stride="3">
              <param name="X" type="float"/>
              <param name="Y" type="float"/>
              <param name="Z" type="float"/>
            </accessor>
          </technique_common>
        </source>
        <source id="Cube_000-mesh-normals">
          <float_array id="Cube_000-mesh-normals-array" count="18">-1 0 0 0 1 0 1 0 0 0 -1 0 0 0 -1 0 0 1</float_array>
          <technique_common>
            <accessor source="#Cube_000-mesh-normals-array" count="6" stride="3">
              <param name="X" type="float"/>
              <param name="Y" type="float"/>
              <param name="Z" type="float"/>
            </accessor>
          </technique_common>
        </source>
        <source id="Cube_000-mesh-map-0">
          <float_array id="Cube_000-mesh-map-0-array" count="288">-1.02706 1.012267 -0.01226729 2.027059 -1.02706 2.027059 -2.046723 -0.007396221 -1.03193 1.007396 -2.046723 1.007396 1.007396 -1.031931 -0.007396221 -2.046723 1.007396 -2.046723 -1.03193 2.027059 -2.046723 1.012267 -1.031931 1.012267 -1.03193 -1.03193 -2.046723 -2.046723 -1.03193 -2.046723 -1.031931 3.046722 -2.046723 2.03193 -1.031931 2.03193 -1.02706 1.012267 -0.01226729 2.027059 -1.02706 2.027059 -2.046723 -0.007396221 -1.03193 1.007396 -2.046723 1.007396 1.007396 -1.031931 -0.007396221 -2.046723 1.007396 -2.046723 -1.03193 2.027059 -2.046723 1.012267 -1.031931 1.012267 -1.03193 -1.03193 -2.046723 -2.046723 -1.03193 -2.046723 -1.031931 3.046722 -2.046723 2.03193 -1.031931 2.03193 -1.02706 1.012267 -0.01226729 2.027059 -1.02706 2.027059 -2.046723 -0.007396221 -1.03193 1.007396 -2.046723 1.007396 1.007396 -1.031931 -0.007396221 -2.046723 1.007396 -2.046723 -1.03193 2.027059 -2.046723 1.012267 -1.031931 1.012267 -1.03193 -1.03193 -2.046723 -2.046723 -1.03193 -2.046723 -1.031931 3.046722 -2.046723 2.03193 -1.031931 2.03193 -1.02706 1.012267 -0.01226729 2.027059 -1.02706 2.027059 -2.046723 -0.007396221 -1.03193 1.007396 -2.046723 1.007396 1.007396 -1.031931 -0.007396221 -2.046723 1.007396 -2.046723 -1.03193 2.027059 -2.046723 1.012267 -1.031931 1.012267 -1.03193 -1.03193 -2.046723 -2.046723 -1.03193 -2.046723 -1.031931 3.046722 -2.046723 2.03193 -1.031931 2.03193 -1.02706 1.012267 -0.01226729 1.012267 -0.01226729 2.027059 -2.046723 -0.007396221 -1.03193 -0.007396042 -1.03193 1.007396 1.007396 -1.031931 -0.007395923 -1.031931 -0.007396221 -2.046723 -1.03193 2.027059 -2.046723 2.027059 -2.046723 1.012267 -1.03193 -1.03193 -2.046723 -1.031931 -2.046723 -2.046723 -1.031931 3.046722 -2.046723 3.046722 -2.046723 2.03193 -1.02706 1.012267 -0.01226729 1.012267 -0.01226729 2.027059 -2.046723 -0.007396221 -1.03193 -0.007396042 -1.03193 1.007396 1.007396 -1.031931 -0.007395923 -1.031931 -0.007396221 -2.046723 -1.03193 2.027059 -2.046723 2.027059 -2.046723 1.012267 -1.03193 -1.03193 -2.046723 -1.031931 -2.046723 -2.046723 -1.031931 3.046722 -2.046723 3.046722 -2.046723 2.03193 -1.02706 1.012267 -0.01226729 1.012267 -0.01226729 2.027059 -2.046723 -0.007396221 -1.03193 -0.007396042 -1.03193 1.007396 1.007396 -1.031931 -0.007395923 -1.031931 -0.007396221 -2.046723 -1.03193 2.027059 -2.046723 2.027059 -2.046723 1.012267 -1.03193 -1.03193 -2.046723 -1.031931 -2.046723 -2.046723 -1.031931 3.046722 -2.046723 3.046722 -2.046723 2.03193 -1.02706 1.012267 -0.01226729 1.012267 -0.01226729 2.027059 -2.046723 -0.007396221 -1.03193 -0.007396042 -1.03193 1.007396 1.007396 -1.031931 -0.007395923 -1.031931 -0.007396221 -2.046723 -1.03193 2.027059 -2.046723 2.027059 -2.046723 1.012267 -1.03193 -1.03193 -2.046723 -1.031931 -2.046723 -2.046723 -1.031931 3.046722 -2.046723 3.046722 -2.046723 2.03193</float_array>
          <technique_common>
            <accessor source="#Cube_000-mesh-map-0-array" count="144" stride="2">
              <param name="S" type="float"/>
              <param name="T" type="float"/>
            </accessor>
          </technique_common>
        </source>
        <source id="Cube_000-mesh-colors-Col" name="Col">
          <float_array id="Cube_000-mesh-colors-Col-array" count="432">0.6039216 0.5803922 1 0.6196079 0.5960785 1 0.6196079 0.5960785 1 0.6196079 0.5960785 1 0.6196079 0.5960785 1 0.6196079 0.5960785 1 0.4039216 0.3411765 1 0.6196079 0.5960785 1 0.2313725 0.2470588 0.9960784 0.6196079 0.5960785 1 0.2784314 0.9960784 0.0117647 0.6196079 0.5960785 1 0.2156863 0.2313725 0.9960784 0.2784314 0.9960784 0.0117647 0.5764706 0.5607843 1 0.6196079 0.5960785 1 0.6196079 0.5960785 1 0.6196079 0.5960785 1 0.6039216 0.5803922 1 0.6196079 0.5960785 1 0.6196079 0.5960785 1 0.6196079 0.5960785 1 0.6196079 0.5960785 1 0.6196079 0.5960785 1 0.4039216 0.3411765 1 0.6196079 0.5960785 1 0.2313725 0.2470588 0.9960784 0.6196079 0.5960785 1 0.2784314 0.9960784 0.0117647 0.6196079 0.5960785 1 0.2156863 0.2313725 0.9960784 0.2784314 0.9960784 0.0117647 0.5764706 0.5607843 1 0.6196079 0.5960785 1 0.6196079 0.5960785 1 0.6196079 0.5960785 1 0.6039216 0.5803922 1 0.6196079 0.5960785 1 0.6196079 0.5960785 1 0.6196079 0.5960785 1 0.6196079 0.5960785 1 0.6196079 0.5960785 1 0.4039216 0.3411765 1 0.6196079 0.5960785 1 0.2313725 0.2470588 0.9960784 0.6196079 0.5960785 1 0.2784314 0.9960784 0.0117647 0.6196079 0.5960785 1 0.2156863 0.2313725 0.9960784 0.2784314 0.9960784 0.0117647 0.5764706 0.5607843 1 0.6196079 0.5960785 1 0.6196079 0.5960785 1 0.6196079 0.5960785 1 0.6039216 0.5803922 1 0.6196079 0.5960785 1 0.6196079 0.5960785 1 0.6196079 0.5960785 1 0.6196079 0.5960785 1 0.6196079 0.5960785 1 0.4039216 0.3411765 1 0.6196079 0.5960785 1 0.2313725 0.2470588 0.9960784 0.6196079 0.5960785 1 0.2784314 0.9960784 0.0117647 0.6196079 0.5960785 1 0.2156863 0.2313725 0.9960784 0.2784314 0.9960784 0.0117647 0.5764706 0.5607843 1 0.6196079 0.5960785 1 0.6196079 0.5960785 1 0.6196079 0.5960785 1 0.6039216 0.5803922 1 0.6196079 0.5960785 1 0.6196079 0.5960785 1 0.6196079 0.5960785 1 0.6196079 0.5960785 1 0.6196079 0.5960785 1 0.4039216 0.3411765 1 0.5137255 0.5019608 1 0.6196079 0.5960785 1 0.6196079 0.5960785 1 0.6039216 0.5803922 1 0.2784314 0.9960784 0.0117647 0.2156863 0.2313725 0.9960784 0.6196079 0.5960785 1 0.2784314 0.9960784 0.0117647 0.6196079 0.5960785 1 0.6039216 0.5803922 1 0.6196079 0.5960785 1 0.6039216 0.5803922 1 0.6196079 0.5960785 1 0.6196079 0.5960785 1 0.6196079 0.5960785 1 0.6196079 0.5960785 1 0.6196079 0.5960785 1 0.4039216 0.3411765 1 0.5137255 0.5019608 1 0.6196079 0.5960785 1 0.6196079 0.5960785 1 0.6039216 0.5803922 1 0.2784314 0.9960784 0.0117647 0.2156863 0.2313725 0.9960784 0.6196079 0.5960785 1 0.2784314 0.9960784 0.0117647 0.6196079 0.5960785 1 0.6039216 0.5803922 1 0.6196079 0.5960785 1 0.6039216 0.5803922 1 0.6196079 0.5960785 1 0.6196079 0.5960785 1 0.6196079 0.5960785 1 0.6196079 0.5960785 1 0.6196079 0.5960785 1 0.4039216 0.3411765 1 0.5137255 0.5019608 1 0.6196079 0.5960785 1 0.6196079 0.5960785 1 0.6039216 0.5803922 1 0.2784314 0.9960784 0.0117647 0.2156863 0.2313725 0.9960784 0.6196079 0.5960785 1 0.2784314 0.9960784 0.0117647 0.6196079 0.5960785 1 0.6039216 0.5803922 1 0.6196079 0.5960785 1 0.6039216 0.5803922 1 0.6196079 0.5960785 1 0.6196079 0.5960785 1 0.6196079 0.5960785 1 0.6196079 0.5960785 1 0.6196079 0.5960785 1 0.4039216 0.3411765 1 0.5137255 0.5019608 1 0.6196079 0.5960785 1 0.6196079 0.5960785 1 0.6039216 0.5803922 1 0.2784314 0.9960784 0.0117647 0.2156863 0.2313725 0.9960784 0.6196079 0.5960785 1 0.2784314 0.9960784 0.0117647 0.6196079 0.5960785 1 0.6039216 0.5803922 1 0.6196079 0.5960785 1</float_array>
          <technique_common>
            <accessor source="#Cube_000-mesh-colors-Col-array" count="144" stride="3">
              <param name="R" type="float"/>
              <param name="G" type="float"/>
              <param name="B" type="float"/>
            </accessor>
          </technique_common>
        </source>
        <vertices id="Cube_000-mesh-vertices">
          <input semantic="POSITION" source="#Cube_000-mesh-positions"/>
        </vertices>
        <triangles material="Material_001-material" count="48">
          <input semantic="VERTEX" source="#Cube_000-mesh-vertices" offset="0"/>
          <input semantic="NORMAL" source="#Cube_000-mesh-normals" offset="1"/>
          <input semantic="TEXCOORD" source="#Cube_000-mesh-map-0" offset="2" set="0"/>
          <input semantic="COLOR" source="#Cube_000-mesh-colors-Col" offset="3" set="0"/>
          <p>1 0 0 0 2 0 1 1 0 0 2 2 3 1 3 3 6 1 4 4 2 1 5 5 7 2 6 6 4 2 7 7 6 2 8 8 5 3 9 9 0 3 10 10 4 3 11 11 6 4 12 12 0 4 13 13 2 4 14 14 3 5 15 15 5 5 16 16 7 5 17 17 9 0 18 18 10 0 19 19 8 0 20 20 11 1 21 21 14 1 22 22 10 1 23 23 15 2 24 24 12 2 25 25 14 2 26 26 13 3 27 27 8 3 28 28 12 3 29 29 14 4 30 30 8 4 31 31 10 4 32 32 11 5 33 33 13 5 34 34 15 5 35 35 17 0 36 36 18 0 37 37 16 0 38 38 19 1 39 39 22 1 40 40 18 1 41 41 23 2 42 42 20 2 43 43 22 2 44 44 21 3 45 45 16 3 46 46 20 3 47 47 22 4 48 48 16 4 49 49 18 4 50 50 19 5 51 51 21 5 52 52 23 5 53 53 25 0 54 54 26 0 55 55 24 0 56 56 27 1 57 57 30 1 58 58 26 1 59 59 31 2 60 60 28 2 61 61 30 2 62 62 29 3 63 63 24 3 64 64 28 3 65 65 30 4 66 66 24 4 67 67 26 4 68 68 27 5 69 69 29 5 70 70 31 5 71 71 1 0 72 72 3 0 73 73 2 0 74 74 3 1 75 75 7 1 76 76 6 1 77 77 7 2 78 78 5 2 79 79 4 2 80 80 5 3 81 81 1 3 82 82 0 3 83 83 6 4 84 84 4 4 85 85 0 4 86 86 3 5 87 87 1 5 88 88 5 5 89 89 9 0 90 90 11 0 91 91 10 0 92 92 11 1 93 93 15 1 94 94 14 1 95 95 15 2 96 96 13 2 97 97 12 2 98 98 13 3 99 99 9 3 100 100 8 3 101 101 14 4 102 102 12 4 103 103 8 4 104 104 11 5 105 105 9 5 106 106 13 5 107 107 17 0 108 108 19 0 109 109 18 0 110 110 19 1 111 111 23 1 112 112 22 1 113 113 23 2 114 114 21 2 115 115 20 2 116 116 21 3 117 117 17 3 118 118 16 3 119 119 22 4 120 120 20 4 121 121 16 4 122 122 19 5 123 123 17 5 124 124 21 5 125 125 25 0 126 126 27 0 127 127 26 0 128 128 27 1 129 129 31 1 130 130 30 1 131 131 31 2 132 132 29 2 133 133 28 2 134 134 29 3 135 135 25 3 136 136 24 3 137 137 30 4 138 138 28 4 139 139 24 4 140 140 27 5 141 141 25 5 142 142 29 5 143 143</p>
        </triangles>
      </mesh>
    </geometry>
    <geometry id="Cube_002-mesh" name="Cube.002">
      <mesh>
        <source id="Cube_002-mesh-positions">
          <float_array id="Cube_002-mesh-positions-array" count="96">0.1608271 -1.107891 -0.4573097 0.1959078 -1.569167 0.5672901 0.3345161 -0.387768 -0.5908393 -0.1246579 0.144456 0.4597991 0.8469231 -0.9518886 -0.6756421 0.8501749 -1.278855 0.7680197 0.9101465 -0.09590816 -0.7983767 1.057666 -0.1152846 0.5049728 0.2759346 0.06677955 -0.2389816 0.195257 0.2227538 0.4633653 0.3124549 0.7057756 -0.5592136 0.2326438 1.137227 0.4466823 1.193181 0.1562298 -0.5088436 1.255244 0.09602457 0.5045389 1.126166 1.324841 -0.6016647 1.231431 0.9136533 0.197655 -1.07842 -0.1406739 -0.698414 -0.9222012 0.06627452 0.5612739 -1.314364 1.241024 -0.4058263 -1.302113 0.9275389 0.5465706 0.04427593 0.3206441 -0.4387148 -0.4189069 0.2610183 0.1583291 -0.143362 1.203651 -0.3530982 0.01538759 1.116545 0.3412269 -0.8761203 -1.513145 -0.4251986 -1.225043 -1.185045 0.5613219 -1.187057 -0.1527853 -0.4709433 -1.48047 -0.2846875 0.7397204 -0.2470998 -1.175692 -0.3692897 -0.01248461 -1.247919 0.4455832 -0.2020347 -0.1619262 -0.4922839 -0.3832197 -0.3776477 0.4562023</float_array>
          <technique_common>
            <accessor source="#Cube_002-mesh-positions-array" count="32" stride="3">
              <param name="X" type="float"/>
              <param name="Y" type="float"/>
              <param name="Z" type="float"/>
            </accessor>
          </technique_common>
        </source>
        <source id="Cube_002-mesh-normals">
          <float_array id="Cube_002-mesh-normals-array" count="144">-0.8829302 0.1292632 -0.4513596 -0.4333463 0.8990637 0.06241422 0.9895331 -0.08933705 -0.1133282 0.1496443 -0.9642442 -0.218723 -0.2786746 -0.1097006 -0.9540998 0.01075714 0.2186662 0.9757404 -0.9934765 -3.69754e-4 -0.1140371 -0.5282814 0.7247185 0.4423822 0.9931991 0.04855024 -0.1058228 0.07822263 -0.9948861 -0.06389701 -0.2165402 -0.4274852 -0.8777055 0.005665242 0.3515366 0.9361571 -0.9863137 -0.1599632 -0.03996574 0.01624578 0.9498043 0.3124228 0.7804898 0.1061163 0.6160967 0.3402099 -0.9245601 0.1715983 0.1301571 0.2266261 -0.965246 0.188398 -0.2958405 0.9364746 -0.9399077 -0.2235136 -0.2580993 0.01390147 0.9744263 0.2242767 0.9829023 -0.02150684 0.182868 0.4015474 -0.8170456 0.4137585 0.0948078 -0.01180291 -0.9954257 0.096466 0.02895438 0.9949151 -0.9811198 -0.1867023 -0.05046159 0.2130078 0.9059714 -0.3658463 0.98174 -0.1850407 -0.04412001 0.4697434 -0.7988549 -0.3757286 -0.2845871 -0.1154358 -0.9516748 -0.2952117 0.004705965 0.9554203 -0.9946575 0.03892064 -0.09561342 0.1093192 0.916633 -0.3844911 0.998133 0.00626558 -0.06075716 -0.1239904 -0.9716035 0.2015271 0.007888972 -0.07872718 -0.996865 0.2435461 0.007736444 0.9698585 -0.9016594 -0.3947151 0.1766644 -0.1174498 0.9816836 0.15001 0.8836581 -0.3947941 -0.2515673 0.4246358 -0.9003396 0.09525191 0.04811912 0.1065209 -0.9931455 0.5430248 0.2532018 0.8006328 -0.9429051 -0.2175223 -0.2522183 0.1184411 0.9836212 0.1358708 0.8956726 0.384287 -0.2238169 -0.05844891 -0.9957317 -0.07142895 -0.02261245 -0.1194194 -0.9925864 0.238468 -0.1232182 0.9633018</float_array>
          <technique_common>
            <accessor source="#Cube_002-mesh-normals-array" count="48" stride="3">
              <param name="X" type="float"/>
              <param name="Y" type="float"/>
              <param name="Z" type="float"/>
            </accessor>
          </technique_common>
        </source>
        <source id="Cube_002-mesh-map-0">
          <float_array id="Cube_002-mesh-map-0-array" count="288">-1.02706 2.027059 -0.01226729 1.012267 -0.01226729 2.027059 -2.046723 1.007396 -1.03193 -0.007396042 -1.03193 1.007396 1.007396 -1.031931 -0.007396221 -2.046723 1.007396 -2.046723 -1.03193 2.027059 -2.046723 1.012267 -1.031931 1.012267 -1.03193 -2.046723 -2.046723 -1.031931 -2.046723 -2.046723 -1.031931 3.046722 -2.046723 2.03193 -1.031931 2.03193 -1.02706 1.012267 -0.01226729 2.027059 -1.02706 2.027059 -2.046723 1.007396 -1.03193 -0.007396042 -1.03193 1.007396 1.007396 -1.031931 -0.007396221 -2.046723 1.007396 -2.046723 -1.03193 2.027059 -2.046723 1.012267 -1.031931 1.012267 -1.03193 -2.046723 -2.046723 -1.031931 -2.046723 -2.046723 -1.031931 2.03193 -2.046723 3.046722 -2.046723 2.03193 -1.02706 2.027059 -0.01226729 1.012267 -0.01226729 2.027059 -2.046723 -0.007396221 -1.03193 1.007396 -2.046723 1.007396 1.007396 -2.046723 -0.007395923 -1.031931 -0.007396221 -2.046723 -1.03193 2.027059 -2.046723 1.012267 -1.031931 1.012267 -1.03193 -2.046723 -2.046723 -1.031931 -2.046723 -2.046723 -1.031931 3.046722 -2.046723 2.03193 -1.031931 2.03193 -1.02706 1.012267 -0.01226729 2.027059 -1.02706 2.027059 -2.046723 1.007396 -1.03193 -0.007396042 -1.03193 1.007396 1.007396 -1.031931 -0.007396221 -2.046723 1.007396 -2.046723 -1.031931 1.012267 -2.046723 2.027059 -2.046723 1.012267 -1.03193 -2.046723 -2.046723 -1.031931 -2.046723 -2.046723 -1.031931 2.03193 -2.046723 3.046722 -2.046723 2.03193 -1.02706 2.027059 -1.02706 1.012267 -0.01226729 1.012267 -2.046723 1.007396 -2.046723 -0.007396221 -1.03193 -0.007396042 1.007396 -1.031931 -0.007395923 -1.031931 -0.007396221 -2.046723 -1.03193 2.027059 -2.046723 2.027059 -2.046723 1.012267 -1.03193 -2.046723 -1.03193 -1.03193 -2.046723 -1.031931 -1.031931 3.046722 -2.046723 3.046722 -2.046723 2.03193 -1.02706 1.012267 -0.01226729 1.012267 -0.01226729 2.027059 -2.046723 1.007396 -2.046723 -0.007396221 -1.03193 -0.007396042 1.007396 -1.031931 -0.007395923 -1.031931 -0.007396221 -2.046723 -1.03193 2.027059 -2.046723 2.027059 -2.046723 1.012267 -1.03193 -2.046723 -1.03193 -1.03193 -2.046723 -1.031931 -1.031931 2.03193 -1.031931 3.046722 -2.046723 3.046722 -1.02706 2.027059 -1.02706 1.012267 -0.01226729 1.012267 -2.046723 -0.007396221 -1.03193 -0.007396042 -1.03193 1.007396 1.007396 -2.046723 1.007396 -1.031931 -0.007395923 -1.031931 -1.03193 2.027059 -2.046723 2.027059 -2.046723 1.012267 -1.03193 -2.046723 -1.03193 -1.03193 -2.046723 -1.031931 -1.031931 3.046722 -2.046723 3.046722 -2.046723 2.03193 -1.02706 1.012267 -0.01226729 1.012267 -0.01226729 2.027059 -2.046723 1.007396 -2.046723 -0.007396221 -1.03193 -0.007396042 1.007396 -1.031931 -0.007395923 -1.031931 -0.007396221 -2.046723 -1.031931 1.012267 -1.03193 2.027059 -2.046723 2.027059 -1.03193 -2.046723 -1.03193 -1.03193 -2.046723 -1.031931 -1.031931 2.03193 -1.031931 3.046722 -2.046723 3.046722</float_array>
          <technique_common>
            <accessor source="#Cube_002-mesh-map-0-array" count="144" stride="2">
              <param name="S" type="float"/>
              <param name="T" type="float"/>
            </accessor>
          </technique_common>
        </source>
        <source id="Cube_002-mesh-colors-Col" name="Col">
          <float_array id="Cube_002-mesh-colors-Col-array" count="432">0.6196079 0.5960785 1 0.6196079 0.5960785 1 0.6196079 0.5960785 1 0.6196079 0.5960785 1 0.6196079 0.5960785 1 0.6196079 0.5960785 1 0.4039216 0.3411765 1 0.6196079 0.5960785 1 0.2313725 0.2470588 0.9960784 0.6196079 0.5960785 1 0.2784314 0.9960784 0.0117647 0.6196079 0.5960785 1 0.5764706 0.5607843 1 0.6196079 0.5960785 1 0.2784314 0.9960784 0.0117647 0.6196079 0.5960785 1 0.6196079 0.5960785 1 0.6196079 0.5960785 1 0.6039216 0.5803922 1 0.6196079 0.5960785 1 0.6196079 0.5960785 1 0.6196079 0.5960785 1 0.6196079 0.5960785 1 0.6196079 0.5960785 1 0.4039216 0.3411765 1 0.6196079 0.5960785 1 0.2313725 0.2470588 0.9960784 0.6196079 0.5960785 1 0.2784314 0.9960784 0.0117647 0.6196079 0.5960785 1 0.5764706 0.5607843 1 0.6196079 0.5960785 1 0.2784314 0.9960784 0.0117647 0.6196079 0.5960785 1 0.6039216 0.5803922 1 0.6196079 0.5960785 1 0.6196079 0.5960785 1 0.6196079 0.5960785 1 0.6196079 0.5960785 1 0.6196079 0.5960785 1 0.6196079 0.5960785 1 0.6196079 0.5960785 1 0.2313725 0.2470588 0.9960784 0.5137255 0.5019608 1 0.6196079 0.5960785 1 0.6196079 0.5960785 1 0.2784314 0.9960784 0.0117647 0.6196079 0.5960785 1 0.5764706 0.5607843 1 0.6196079 0.5960785 1 0.2784314 0.9960784 0.0117647 0.6196079 0.5960785 1 0.6196079 0.5960785 1 0.6196079 0.5960785 1 0.6039216 0.5803922 1 0.6196079 0.5960785 1 0.6196079 0.5960785 1 0.6196079 0.5960785 1 0.6196079 0.5960785 1 0.6196079 0.5960785 1 0.4039216 0.3411765 1 0.6196079 0.5960785 1 0.2313725 0.2470588 0.9960784 0.6196079 0.5960785 1 0.6039216 0.5803922 1 0.2784314 0.9960784 0.0117647 0.5764706 0.5607843 1 0.6196079 0.5960785 1 0.2784314 0.9960784 0.0117647 0.6196079 0.5960785 1 0.6039216 0.5803922 1 0.6196079 0.5960785 1 0.6196079 0.5960785 1 0.6039216 0.5803922 1 0.6196079 0.5960785 1 0.6196079 0.5960785 1 0.6196079 0.5960785 1 0.6196079 0.5960785 1 0.4039216 0.3411765 1 0.5137255 0.5019608 1 0.6196079 0.5960785 1 0.6196079 0.5960785 1 0.6039216 0.5803922 1 0.2784314 0.9960784 0.0117647 0.5764706 0.5607843 1 0.2156863 0.2313725 0.9960784 0.6196079 0.5960785 1 0.6196079 0.5960785 1 0.6039216 0.5803922 1 0.6196079 0.5960785 1 0.6039216 0.5803922 1 0.6196079 0.5960785 1 0.6196079 0.5960785 1 0.6196079 0.5960785 1 0.6196079 0.5960785 1 0.6196079 0.5960785 1 0.4039216 0.3411765 1 0.5137255 0.5019608 1 0.6196079 0.5960785 1 0.6196079 0.5960785 1 0.6039216 0.5803922 1 0.2784314 0.9960784 0.0117647 0.5764706 0.5607843 1 0.2156863 0.2313725 0.9960784 0.6196079 0.5960785 1 0.6196079 0.5960785 1 0.6196079 0.5960785 1 0.6039216 0.5803922 1 0.6196079 0.5960785 1 0.6039216 0.5803922 1 0.6196079 0.5960785 1 0.6196079 0.5960785 1 0.6196079 0.5960785 1 0.6196079 0.5960785 1 0.2313725 0.2470588 0.9960784 0.4039216 0.3411765 1 0.5137255 0.5019608 1 0.6196079 0.5960785 1 0.6039216 0.5803922 1 0.2784314 0.9960784 0.0117647 0.5764706 0.5607843 1 0.2156863 0.2313725 0.9960784 0.6196079 0.5960785 1 0.6196079 0.5960785 1 0.6039216 0.5803922 1 0.6196079 0.5960785 1 0.6039216 0.5803922 1 0.6196079 0.5960785 1 0.6196079 0.5960785 1 0.6196079 0.5960785 1 0.6196079 0.5960785 1 0.6196079 0.5960785 1 0.4039216 0.3411765 1 0.5137255 0.5019608 1 0.6196079 0.5960785 1 0.6196079 0.5960785 1 0.6196079 0.5960785 1 0.6039216 0.5803922 1 0.5764706 0.5607843 1 0.2156863 0.2313725 0.9960784 0.6196079 0.5960785 1 0.6196079 0.5960785 1 0.6196079 0.5960785 1 0.6039216 0.5803922 1</float_array>
          <technique_common>
            <accessor source="#Cube_002-mesh-colors-Col-array" count="144" stride="3">
              <param name="R" type="float"/>
              <param name="G" type="float"/>
              <param name="B" type="float"/>
            </accessor>
          </technique_common>
        </source>
        <vertices id="Cube_002-mesh-vertices">
          <input semantic="POSITION" source="#Cube_002-mesh-positions"/>
        </vertices>
        <triangles material="Material-material" count="48">
          <input semantic="VERTEX" source="#Cube_002-mesh-vertices" offset="0"/>
          <input semantic="NORMAL" source="#Cube_002-mesh-normals" offset="1"/>
          <input semantic="TEXCOORD" source="#Cube_002-mesh-map-0" offset="2" set="0"/>
          <input semantic="COLOR" source="#Cube_002-mesh-colors-Col" offset="3" set="0"/>
          <p>0 0 0 0 3 0 1 1 2 0 2 2 2 1 3 3 7 1 4 4 6 1 5 5 7 2 6 6 4 2 7 7 6 2 8 8 5 3 9 9 0 3 10 10 4 3 11 11 2 4 12 12 4 4 13 13 0 4 14 14 3 5 15 15 5 5 16 16 7 5 17 17 9 6 18 18 10 6 19 19 8 6 20 20 10 7 21 21 15 7 22 22 14 7 23 23 15 8 24 24 12 8 25 25 14 8 26 26 13 9 27 27 8 9 28 28 12 9 29 29 10 10 30 30 12 10 31 31 8 10 32 32 15 11 33 33 9 11 34 34 13 11 35 35 16 12 36 36 19 12 37 37 18 12 38 38 19 13 39 39 22 13 40 40 18 13 41 41 22 14 42 42 21 14 43 43 20 14 44 44 21 15 45 45 16 15 46 46 20 15 47 47 18 16 48 48 20 16 49 49 16 16 50 50 19 17 51 51 21 17 52 52 23 17 53 53 25 18 54 54 26 18 55 55 24 18 56 56 26 19 57 57 31 19 58 58 30 19 59 59 31 20 60 60 28 20 61 61 30 20 62 62 28 21 63 63 25 21 64 64 24 21 65 65 26 22 66 66 28 22 67 67 24 22 68 68 31 23 69 69 25 23 70 70 29 23 71 71 0 24 72 72 1 24 73 73 3 24 74 74 2 25 75 75 3 25 76 76 7 25 77 77 7 26 78 78 5 26 79 79 4 26 80 80 5 27 81 81 1 27 82 82 0 27 83 83 2 28 84 84 6 28 85 85 4 28 86 86 3 29 87 87 1 29 88 88 5 29 89 89 9 30 90 90 11 30 91 91 10 30 92 92 10 31 93 93 11 31 94 94 15 31 95 95 15 32 96 96 13 32 97 97 12 32 98 98 13 33 99 99 9 33 100 100 8 33 101 101 10 34 102 102 14 34 103 103 12 34 104 104 15 35 105 105 11 35 106 106 9 35 107 107 16 36 108 108 17 36 109 109 19 36 110 110 19 37 111 111 23 37 112 112 22 37 113 113 22 38 114 114 23 38 115 115 21 38 116 116 21 39 117 117 17 39 118 118 16 39 119 119 18 40 120 120 22 40 121 121 20 40 122 122 19 41 123 123 17 41 124 124 21 41 125 125 25 42 126 126 27 42 127 127 26 42 128 128 26 43 129 129 27 43 130 130 31 43 131 131 31 44 132 132 29 44 133 133 28 44 134 134 28 45 135 135 29 45 136 136 25 45 137 137 26 46 138 138 30 46 139 139 28 46 140 140 31 47 141 141 27 47 142 142 25 47 143 143</p>
        </triangles>
      </mesh>
    </geometry>
  </library_geometries>
  <library_controllers/>
  <library_visual_scenes>
    <visual_scene id="Scene" name="Scene">
      <node id="Cube_001" name="Cube_001" type="NODE">
        <matrix sid="transform">0.8747698 -0.3253893 -0.3590259 0.3387671 0.4191705 0.8798731 0.2238737 1.345108 0.2430511 -0.346331 0.90608 1.701326 0 0 0 1</matrix>
        <instance_geometry url="#Cube_003-mesh" name="Cube_001">
          <bind_material>
            <technique_common>
              <instance_material symbol="Material_002-material" target="#Material_002-material"/>
            </technique_common>
          </bind_material>
        </instance_geometry>
      </node>
      <node id="Cube" name="Cube" type="NODE">
        <matrix sid="transform">1 0 0 0 0 1 0 0 0 0 1 0 0 0 0 1</matrix>
        <instance_geometry url="#Cube_001-mesh" name="Cube">
          <bind_material>
            <technique_common>
              <instance_material symbol="Material-material" target="#Material-material"/>
            </technique_common>
          </bind_material>
        </instance_geometry>
      </node>
      <node id="Cube_002" name="Cube_002" type="NODE">
        <matrix sid="transform">0.3656262 -0.461163 -0.8084838 -2.230465 0.477803 0.8384347 -0.262167 0.2226509 0.7987627 -0.2904408 0.5268988 1.182666 0 0 0 1</matrix>
        <instance_geometry url="#Cube_001-mesh" name="Cube_002">
          <bind_material>
            <technique_common>
              <instance_material symbol="Material-material" target="#Material-material"/>
            </technique_common>
          </bind_material>
        </instance_geometry>
      </node>
      <node id="Cube_003" name="Cube_003" type="NODE">
        <matrix sid="transform">0.9813989 0.1337683 0.1377038 2.588007 -0.1034256 0.9726905 -0.2077891 0.2193172 -0.1617388 0.1896819 0.9684324 0.2068314 0 0 0 1</matrix>
        <instance_geometry url="#Cube_000-mesh" name="Cube_003">
          <bind_material>
            <technique_common>
              <instance_material symbol="Material_001-material" target="#Material_001-material"/>
            </technique_common>
          </bind_material>
        </instance_geometry>
        <node id="Icosphere" name="Icosphere" type="NODE">
          <matrix sid="transform">0.308949 -0.483521 -0.8171312 3.464792 0.243284 0.8669507 -0.3624814 -4.315856 0.5091735 -0.1208466 0.6690011 1.548334 0 0 0 1</matrix>
          <instance_geometry url="#Icosphere-mesh" name="Icosphere">
            <bind_material>
              <technique_common>
                <instance_material symbol="Material_001-material" target="#Material_001-material"/>
              </technique_common>
            </bind_material>
          </instance_geometry>
        </node>
      </node>
      <node id="Cube_004" name="Cube_004" type="NODE">
        <matrix sid="transform">0.7432844 -0.3932269 -0.5412031 -6.92368e-4 0.4824393 0.8755304 0.0264365 1.956678 0.4634443 -0.2807475 0.8404762 2.862762 0 0 0 1</matrix>
        <instance_geometry url="#Cube_003-mesh" name="Cube_004">
          <bind_material>
            <technique_common>
              <instance_material symbol="Material_002-material" target="#Material_002-material"/>
            </technique_common>
          </bind_material>
        </instance_geometry>
      </node>
      <node id="Cube_006" name="Cube_006" type="NODE">
        <matrix sid="transform">0.4825561 -0.4774638 -0.3121805 -3.80674 0.1867676 0.8374628 -0.4445291 -5.272436 0.2783072 0.2658651 0.8396054 1.126769 0 0 0 1</matrix>
        <instance_geometry url="#Cube_002-mesh" name="Cube_006">
          <bind_material>
            <technique_common>
              <instance_material symbol="Material-material" target="#Material-material"/>
            </technique_common>
          </bind_material>
        </instance_geometry>
      </node>
    </visual_scene>
  </library_visual_scenes>
  <scene>
    <instance_visual_scene url="#Scene"/>
  </scene>
</COLLADA>